[
    {
        "ID": "111b",
        "SC": "1.1.1.b - Informative Images",
        "AssureCkpointID":"1.1.1.b Alternative Text (Informative Images)",
        "Details": ""
    },
    {
        "IssueDescription": "Informative image missing alternative text",
        "AssureDescID": "Text alternative is missing",
        "RecShort": "Use the contentDescription property",
        "HowToFix": "RULE:\\nImages MUST have a contentDescription unless they are decorative or redundant.\\n\\nHOW TO FIX:\\nFix this issue by using the ImageView's contentDescrition property to provide accessible name for the image.\\n\\nREFERENCE:\\nDeque University: https://dequeuniversity.com/class/android2/images/informative\\n\\nBACKGROUND:\\nPeople who are blind cannot see images on a screen. In order to give people who cannot see an image access to the information conveyed by the image, it must have a text alternative. The text alternative must describe the information or function represented by the image. Screen readers can then use the alternative text to convey that information to the screen reader user.\\n\\nFor informative images - images that convey information - the alternative text must communicate the intent, purpose, or meaning of the image in a way that serves as a true alternative for the image."
    },
    {
        "IssueDescription": "Alternative text is not meaningful",
        "AssureDescID": "Text alternative does not include essential text in image",
        "RecShort": "Provide a meaningful contentDescription property.",
        "HowToFix": "RULE:\\nThe alternative text for informative images MUST be meaningful (accurately conveying the purpose of the image and the author's intent in a way that is useful to those who cannot see the image).\\n\\nHOW TO FIX:\\nFix this issue by ensuring that the ImageView's contentDescription clearly describes the intent, purpose, or meaning of the image.\\n\\nREFERENCE:\\nDeque University: https://dequeuniversity.com/class/android2/images/informative\\n\\nBACKGROUND:\\nPeople who are blind cannot see images on a screen. In order to give people who cannot see an image access to the information conveyed by the image, it must have a text alternative. The text alternative must describe the information or function represented by the image. Screen readers can then use the alternative text to convey that information to the screen reader user.\\n\\nFor informative images - images that convey information - the alternative text must communicate the intent, purpose, or meaning of the image in a way that serves as a true alternative for the image."
    },
    {
        "IssueDescription": "Alternative text does not match dynamically changing images",
        "AssureDescID": "Text alternative does not match dynamically changing image",
        "RecShort": "Update the contentDescription property as the image changes",
        "HowToFix": "RULE:\\nImages MUST have a contentDescription unless they are decorative or redundant.\\n\\nHOW TO FIX:\\nFix this issue by updating the ImageView's contentDescription property as the image changes.\\n\\nREFERENCE:\\nDeque University: https://dequeuniversity.com/class/android2/images/informative\\n\\nBACKGROUND:\\nPeople who are blind cannot see images on a screen. In order to give people who cannot see an image access to the information conveyed by the image, it must have a text alternative. The text alternative must describe the information or function represented by the image. Screen readers can then use the alternative text to convey that information to the screen reader user.\\n\\nFor informative images - images that convey information - the alternative text must communicate the intent, purpose, or meaning of the image in a way that serves as a true alternative for the image."
    }
]