[
    {
        "ID": "131c",
        "AssureCkpointID":"1.3.1.c Programmatic Labels",
        "SC": "1.3.1.c - Programmatic labels",
        "Details": "131c Programmatic labels"
    },
    {
        "IssueDescription": "Text field does not have a programmatic label",
        "AssureDescID": "NA",
        "RecShort": "Use labelFor",
        "HowToFix": "RULE:\\nLabel and instruction text MUST be programmatically associated with the input.\\n\\nHOW TO FIX:\\nFix this issue by associating the EditText and its TextView label using the TextView's labelFor property to reference the EditText's android:id value.\\n\\nREFERENCE:\\nDeque University: https://dequeuniversity.com/class/android2/form-labels-validation/labels\\n\\nBACKGROUND:\\nPeople who are blind cannot use the visual layout of a form to determine which labels go with which form elements. In order to be certain which label goes with which form element, the label and form element must be programmatically associated. When labels and form elements are programmatically associated, a screen reader user can put focus on a form element and the screen reader will automatically read the label and element type together."
    },
    {
        "IssueDescription": "Checkbox does not have a programmatic label",
        "AssureDescID": "NA",
        "RecShort": "Use android:text property",
        "HowToFix": "RULE:\\nCheckboxes MUST convey their label text and checked state to TalkBack.\\n\\nHOW TO FIX:\\nFix this issue by using the CheckBox's android:text property to display the visible label, so it will be programmatically associated with the checkbox by default. \\n\\nREFERENCE:\\nDeque University: https://dequeuniversity.com/class/android2/form-labels-validation/checkboxes\\n\\nBACKGROUND:\\nPeople who are blind cannot use the visual layout of a form to determine which labels go with which form elements. In order to be certain which label goes with which form element, the label and form element must be programmatically associated. When labels and form elements are programmatically associated, a screen reader user can put focus on a form element and the screen reader will automatically read the label and element type together. "
    },
    {
        "IssueDescription": "Radio Button does not have a programmatic label",
        "AssureDescID": "NA",
        "RecShort": "Use android:text property",
        "HowToFix": "RULE:\\nRadio buttons MUST convey their individual label, group legend, and checked state to TalkBack.\\n\\nHOW TO FIX:\\nFix this issue by using the RadioButton's android:text property to display the visible label, so it will be programmatically associated with the radio button by default. \\n\\nREFERENCE:\\nDeque University: https://dequeuniversity.com/class/android2/form-labels-validation/radio-buttons\\n\\nBACKGROUND:\\nPeople who are blind cannot use the visual layout of a form to determine which labels go with which form elements. In order to be certain which label goes with which form element, the label and form element must be programmatically associated. When labels and form elements are programmatically associated, a screen reader user can put focus on a form element and the screen reader will automatically read the label and element type together."
    },
    {
        "IssueDescription": "Spinner / Select does not have a programmatic label",
        "AssureDescID": "NA",
        "RecShort": "Use labelFor",
        "HowToFix": "RULE:\\nSpinner or select dropdown controls MUST have a programmatically associated visible text label.\\n\\nHOW TO FIX:\\nFix this issue by associating the Spinner and its TextView label using the TextView's labelFor property to reference the Spinner's android:id value.\\n\\nREFERENCE:\\nDeque University: https://dequeuniversity.com/class/android2/form-labels-validation/select\\n\\nBACKGROUND:\\nPeople who are blind cannot use the visual layout of a form to determine which labels go with which form elements. In order to be certain which label goes with which form element, the label and form element must be programmatically associated. When labels and form elements are programmatically associated, a screen reader user can put focus on a form element and the screen reader will automatically read the label and element type together."
    },
    {
        "IssueDescription": "Custom form field does not have a programmatic label",
        "AssureDescID": "NA",
        "RecShort": "Use contentDescription",
        "HowToFix": "RULE:\\nLabels MUST be programmatically associated with their corresponding elements.\\n\\nHOW TO FIX:\\nFix this issue by doing the following:\\n1.Ensure that the element's contentDescription matches the visible text when there is also visible label text.\\n2. Use the element's contentDescription to combine the label text string with visble instructions or screen reader only instructions when the label doesn't sufficiently convey a control's purpose to TalkBack users.\\n\\nREFERENCE:\\nDeque University: https://dequeuniversity.com/class/android2/form-labels-validation/labels\\nDeque University: https://dequeuniversity.com/class/android2/custom-elements/\\n\\nBACKGROUND:\\nPeople who are blind cannot use the visual layout of a form to determine which labels go with which form elements. In order to be certain which label goes with which form element, the label and form element must be programmatically associated. When labels and form elements are programmatically associated, a screen reader user can put focus on a form element and the screen reader will automatically read the label and element type together."
    }
]