[
    {
        "ID": "131d",
        "AssureCkpointID":"1.3.1.d Group Related Form Elements",
        "SC": "1.3.1.d - Group related form fields",
        "Details": "131d Group related form fields"
    },
    {
        "IssueDescription": "Group of form fields not associated with group label",
        "AssureDescID": "Group of form controls not associated with group label",
        "RecShort": "Use contentDescription",
        "HowToFix": "RULE:\\nGroups of related inputs MUST convey their group legend text to TalkBack users.\\n\\nHOW TO FIX:\\nFix this issue by doing ALL of the following:\\n1) For controls that use labelFor to connect a TextView and the control to provide a label for the control (such as an EditText and a Spinner), add a contentDescription to the TextView which includes both the visible form field label and the visible group label.\\n2) For contols that use the control's android:text to provide a label for the control (such as a Checkbox and a RadioButton) add a contentDescription to each control which includes both the visible form field label and the visible group label.\\n3) For controls that use the control's contentDescription to provide a label for the control (such as a DatePicker) add the visible group label to the contentDescription along with the control's label.\\n\\nREFERENCE:\\nDeque University: https://dequeuniversity.com/class/android2/form-labels-validation/group-labels\\nDeque University: https://dequeuniversity.com/class/android2/form-labels-validation/checkboxes\\n\\nBACKGROUND\\nPeople who are blind cannot use the visual layout of a group of related form elements and their shared group label - such as a question with a set of radio button answers - to determine the relationship between the form fields and the group label. In order to understand the relationship of the form fields, their individual labels, and their group label, the relationships must be expressed programmatically. When grouped form elements and their group label are expressed programmatically, a screen reader user can put focus on a form element and the screen reader will read the form element label and element type as well as the group label."
    },
    {
        "IssueDescription": "Group of checkboxes not associated with group label",
        "AssureDescID": "Group of checkboxes is missing <fieldset>",
        "RecShort": "Use contentDescription",
        "HowToFix": "RULE:\\nCheckboxes inside a group MUST convey their legend text to TalkBack users.\\n\\nHOW TO FIX:\\nFix this issue by adding a contentDescription to each CheckBox element which includes both the visible checkbox label and the visible group label.\\n\\nREFERENCE:\\nDeque University: https://dequeuniversity.com/class/android2/form-labels-validation/checkboxes\\n\\nBACKGROUND:\\nPeople who are blind cannot use the visual layout of a group of related form elements and their shared group label - such as a question with a set of radio button answers - to determine the relationship between the form fields and the group label. In order to understand the relationship of the form fields, their individual labels, and their group label, the relationships must be expressed programmatically. When grouped form elements and their group label are expressed programmatically, a screen reader user can put focus on a form element and the screen reader will read the form element label and element type as well as the group label."
    },
    {
        "IssueDescription": "Group of radio buttons not associated with group label",
        "AssureDescID": "Group of radio buttons is missing <fieldset>",
        "RecShort": "Use contentDescription",
        "HowToFix": "RULE:\\nRadio buttons MUST convey their individual label, group legend, and checked state to TalkBack users.\\n\\nHOW TO FIX:\\nFix this issue by adding a contentDescription to each RadioButton element which includes both the visible radio button label and the visible group label.\\n\\nREFERENCE:\\nDeque University: https://dequeuniversity.com/class/android2/form-labels-validation/radio-buttons\\n\\nBACKGROUND:\\nPeople who are blind cannot use the visual layout of a group of related form elements and their shared group label - such as a question with a set of radio button answers - to determine the relationship between the form fields and the group label. In order to understand the relationship of the form fields, their individual labels, and their group label, the relationships must be expressed programmatically. When grouped form elements and their group label are expressed programmatically, a screen reader user can put focus on a form element and the screen reader will read the form element label and element type as well as the group label."
    }
]