[
    {
        "ID": "133b",
        "AssureCkpointID":"1.3.3.b Sound Cues",
        "SC": "1.3.3.b Sound Cues",
        "Details": "133b Sound Cues"
    },
    {
        "IssueDescription": "Information relies on ability to hear",
        "AssureDescID": "Information relies on ability to hear",
        "RecShort": "Ensure instructions do not rely on ability to hear",
        "HowToFix": "RULE:\\nInstructions for an element MUST NOT rely solely on references to sensory characteristics.\\n\\nHOW TO FIX:\\nFix this issue by ensuring that information conveyed by audio cues is also available in text so people who are deaf or hard of hearing can still get the information or follow the instructions.\\n\\nREFERENCE:\\nDeque University: https://dequeuniversity.com/class/forms2/instructions/inputs\\n\\nBACKGROUND:\\nWhen instructions to use content rely on a person's ability to hear, people who are deaf or hard of hearing are at a risk of being unable to understand or follow the instructions. Instructions may include audio cues as long as the information is conveyed in other ways as well, for example in text. Providing additional information other than audio cues will allow people who are deaf or hard of hearing to understand the instructions. "
    }
]