[
    {
        "ID": "141b",
        "AssureCkpointID":"1.4.1.b Link Color Contrast",
        "SC": "1.4.1.b - Link color contrast",
        "Details": "141b Link color contrast"
    },
    {
        "IssueDescription": "Link text lacks enough color contrast with its surrounding text",
        "AssureDescID": "Link contrast is not at least 3:1 with surrounding text",
        "RecShort": "Increase contrast or provide additional indicator",
        "HowToFix": "RULE:\\nColor alone MUST NOT be used to distinguish links from surrounding text unless the color contrast between the link and the surrounding text is at least 3:1. An additional differentiation (e.g. underline, outline, etc.) SHOULD BE provided as well.\\n\\nHOW TO FIX:\\nFix this issue using ONE of the following techniques:\\n1. Leave the link text and body text contrast as-is, but add an additional visual indicator (e.g. underline, outline, arrow icon, etc) to the link text.\\n2. Ensure that there is a minimum of 3:1 contrast between the link text and its surrounding text. (As a best practice to be the most accessible to the most users, in addition to sufficient contrast, links should have another distinguisher such as an underline, outline, arrow icon, etc.)\\n\\nREFERENCE:\\nDeque University: https://dequeuniversity.com/class/android2/color-and-contrast/color-information\\n\\nBACKGROUND:\\nWhen link text is visually differentiated from surrounding body text only by color, people who are color blind or with low vision may miss links. Link text must be differentiated from surrounding text either by: 1) an underline (or similar) in the default state, or 2) a contrast ratio of at least 3.0 to 1 between link text and surrounding text. When link text is adequately distinguished from surrounding text, people who have visual disabilities will be less likely to miss links."
    }
]