[
    {
        "ID": "143a",
        "AssureCkpointID":"1.4.3.a Color Contrast (regular text)",
        "SC": "1.4.3.a - Color contrast ratio for regular text",
        "Details": "143a Color contrast ratio for regular text"
    },
    {
        "IssueDescription": "Regular text, link text, or image of text lacks 4.5 to 1 contrast ratio",
        "AssureDescID": "Text content lacks 4.5:1 contrast ratio",
        "RecShort": "Adjust text or background to increase contrast",
        "HowToFix": "RULE:\\nSmall text (under 18 point regular font or 14 point bold font) MUST have a contrast ratio of at least 4.5 to 1 with the background.\\n\\nHOW TO FIX:\\nFix this issue by adjusting the text and/or background to increase the contrast to at least 4.5 to 1.\\n\\nREFERENCE:\\nDeque University: https://dequeuniversity.com/class/android2/color-and-contrast/contrast\\n\\nBACKGROUND:\\nPeople who have low vision or are colorblind may have difficulty reading text if the contrast between the text its background is insufficient. When the contrast ratio between text and its background is adequate, people who have low vision or are colorblind are more likely to be able to read the text."
    }
]