[
    {
        "ID": "221a",
        "AssureCkpointID":"2.2.1.a Timing Adjustable",
        "SC": "2.2.1.a - Timing adjustable",
        "Details": "221a Timing adjustable"
    },
    {
        "IssueDescription": "User cannot adjust the time limit",
        "AssureDescID": "User cannot turn off, adjust or extend time",
        "RecShort": "Provide ability to adjust or extend limit",
        "HowToFix": "RULE:\\nUser login sessions MUST NOT timeout the user or kick the user out without first providing an accessible timeout warning and session extension method.\\n\\nHOW TO FIX:\\nFix this issue by providing an accessible warning of the timeout and an accessible mechanism to do ONE of the following:\\n1. Turn off: Allow the user to turn off the time limit before encountering it.\\n2. Adjust: Allow the user to adjust the time limit before encountering it over a wide range that is at least ten times the length of the default setting.\\n3. Extend: Warn the user before time expires, give the user at least 20 seconds to extend the time limit with a simple action, and allow the user to extend the time limit at least ten times.\\n\\nREFERENCE:\\nDeque University: https://dequeuniversity.com/class/android2/notifications/time-limits\\n\\nBACKGROUND:\\nPeople with disabilities such as blindness, low vision, mobility impairments, and cognitive limitations may require more time to read content or to perform functions such as filling out online forms. If a session has a time limit, it may be difficult or impossible for some users to perform the required action before a time limit occurs. People must have the ability to turn off or extend time limits while interacting with content. Giving people the ability to turn off or extend the time helps ensure that they can complete tasks. "
    },
    {
        "IssueDescription": "Timeout warning and mechanism is not TalkBack compatible",
        "AssureDescID": "NA",
        "RecShort": "Ensure warning and mechanism is compatible with TalkBack",
        "HowToFix": "RULE:\\nUser login sessions MUST NOT timeout the user or kick the user out without first providing an accessible timeout warning and session extension method.\\n\\nHOW TO FIX:\\nIf TalkBack users are not made aware of the timeout warning and the mechanism to extend the time limit is not operable with TalkBack, then the benefit of having this option is not met.\\n\\nFix this issue by doing ONE of the following:\\n1. Use a native AlertDialog to present the timeout warning and mechanism to extend the session.\\n2. Use a custom modal dialog to present the timeout warning and mechanism to extend the session. This option will require additional work to ensure that the modal dialog and mechanism to extend the time limit are compatible with TalkBack.\\n\\nREFERENCE:\\nDeque University: https://dequeuniversity.com/class/android2/notifications/time-limits\\n\\nBACKGROUND:\\nPeople with disabilities such as blindness, low vision, mobility impairments, and cognitive limitations may require more time to read content or to perform functions such as filling out online forms. If a session has a time limit, it may be difficult or impossible for some users to perform the required action before a time limit occurs. People must have the ability to turn off or extend time limits while interacting with content. Giving people the ability to turn off or extend the time helps ensure that they can complete tasks. "
    },
    {
        "IssueDescription": "User is not warned of screen timeout",
        "AssureDescID": "User is not warned of timeout",
        "RecShort": "Provide accessible timeout warning",
        "HowToFix": "RULE:\\nUser login sessions MUST NOT timeout the user or kick the user out without first providing an accessible timeout warning and session extension method.\\n\\nHOW TO FIX:\\nFix this issue by providing an accessible warning of the timeout and an accessible mechanism to do ONE of the following:\\n1.  Turn off: Allow the user to turn off the time limit before encountering it.\\n2. Adjust: Allow the user to adjust the time limit before encountering it over a wide range that is at least ten times the length of the default setting.\\n3. Extend: Warn the user before time expires, give the user at least 20 seconds to extend the time limit with a simple action, and allow the user to extend the time limit at least ten times.\\n\\nREFERENCE:\\nDeque University: https://dequeuniversity.com/class/android2/notifications/time-limits\\n\\nBACKGROUND:\\nPeople with disabilities such as blindness, low vision, mobility impairments, and cognitive limitations may require more time to read content or to perform functions such as filling out online forms. If a session has a time limit, it may be difficult or impossible for some users to perform the required action before a time limit occurs. People must have the ability to turn off or extend time limits while interacting with content. Giving people the ability to turn off or extend the time helps ensure that they can complete tasks. "
    }
]