[
    {
        "ID": "242a",
        "AssureCkpointID":"2.4.2.a Titles on Pages",
        "SC": "2.4.2.a - Page Titles",
        "Details": "242a Page Titles"
    },
    {
        "IssueDescription": "Missing title for the screen",
        "AssureDescID": "NA",
        "RecShort": "Use setTitle() method to assign a page title",
        "HowToFix": "RULE:\\nEach screen MUST have a meaningful title that describes its purpose.\\n\\nHOW TO FIX:\\nFix this issue by using the setTitle() method. This method dynamically changes the title of each page in the app.\\n\\nREFERENCE:\\nDeque University: https://dequeuniversity.com/class/android2/navigation/page-titles\\n\\nBACKGROUND:\\nPeople who are blind cannot visually scan a screen for a main heading or similar feature to quickly determine the purpose of a particular page. The screen title is the first thing a screen reader reads when loading a new screen. A descriptive screen title gives screen reader users a quick overview of a screen without having to read the screen itself."
    },
    {
        "IssueDescription": "Screen title does not identify purpose of page",
        "AssureDescID": "NA",
        "RecShort": "Provide a title that describes screen purpose",
        "HowToFix": "RULE:\\nEach screen MUST have a meaningful title that describes its purpose.\\n\\nHOW TO FIX:\\nFix this issue by providing a descriptive, informative and (preferably) unique title for each screen.\\n\\nREFERENCE:\\nDeque University: https://dequeuniversity.com/class/android2/navigation/page-titles\\n\\nBACKGROUND:\\nPeople who are blind cannot visually scan a screen for a main heading or similar feature to quickly determine the purpose of a particular page. The screen title is the first thing a screen reader reads when loading a new screen. A descriptive screen title gives screen reader users a quick overview of a screen without having to read the screen itself."
    }
]