[
    {
        "ID": "243a",
        "AssureCkpointID":"2.4.3.a Focus Order",
        "SC": "2.4.3.a - Focus order",
        "Details": "243a Focus order"
    },
    {
        "IssueDescription": "Closing menu does not return to triggering element",
        "AssureDescID": "NA",
        "RecShort": "Return focus to trigger or logical element",
        "HowToFix": "RULE:\\nWhen menu is closed, focus MUST return to the element (button) that triggered the menu.\\n\\nHOW TO FIX:\\nFix this issue by using setOnDismissListener to detect when the user closes the menu and then use AccessibilityEvent.TYPE_VIEW_FOCUSED to send TalkBack focus back to the button used to open the menu.\\n\\nREFERENCE:\\nDeque University: https://dequeuniversity.com/class/android2/navigation/menu\\n\\nBACKGROUND:\\nWhen a menu is closed, if focus is not explicitly placed back on the element that opened the menu, keyboard focus and screen reader focus will be lost - usually sending the focus back to the top of the screen. Screen reader users may become disoriented, not hearing their new location and not knowing where their focus is. When a menu is closed, focus must be placed back on the element that opened the menu. This allows screen readers to announce the element that has received focus so screen reader users know where they are and allows keyboard users to interact logically with the content."
    },
    {
        "IssueDescription": "Focus is not placed on opened modal",
        "AssureDescID": "Focus is not placed on opened modal",
        "RecShort": "Use AccessibilityEvent to place focus on the modal.",
        "HowToFix": "RULE:\\nModal dialogs MUST trap keyboard and screen reader focus and MUST prevent focus of the grayed-out content.\\n\\nHOW TO FIX:\\nFix this issue by using ONE of the following techniques:\\n1. Use a native AlertDialog component which already announces itself to TalkBack users and moves and traps focus/prevents focus of the main content by default.\\n2. If a custom dialog is used, use an AccessibilityEvent to set TalkBack's focus to the title text of the modal dialog.\\n\\nREFERENCE:\\nDeque University: https://dequeuniversity.com/class/android2/notifications/dialog\\nDeque University: https://dequeuniversity.com/class/android2/notifications/alert\\n\\nBACKGROUND:\\nWhen a person who is blind opens a modal dialog and keyboard and screen reader focus is not moved to it, it can be extremely difficult, if not impossible, to know that the modal dialog has appeared and to interact with it. Keyboard focus and screen reader must be moved to an appropriate place in the modal dialog. This allows screen readers to announce the modal dialog and allow users to interact with the modal dialog with the keyboard."
    },
    {
        "IssueDescription": "Focus is not maintained in modal",
        "AssureDescID": "Focus is not maintained in modal",
        "RecShort": "Use setImportantForAccessibility to manage focus within the modal.",
        "HowToFix": "RULE:\\nModal dialogs MUST trap keyboard and screen reader focus and MUST prevent focus of the grayed-out content.\\n\\nHOW TO FIX:\\nFix this issue by using ONE of the following techniques:\\n1. Use a native AlertDialog component which already announces itself to TalkBack users and moves and traps focus/prevents focus of the main content by default.\\n2. If a custom dialog is used, use setImportantForAccessibility(View.IMPORTANT_FOR_ACCESSIBILITY_NO) and _YES on all the main view content elements and setEnabled(true) and false on the buttons to hide the grayed-out main content area and trap focus inside the modal dialog.\\n\\nREFERENCE:\\nDeque University: https://dequeuniversity.com/class/android2/notifications/dialog\\nDeque University: https://dequeuniversity.com/class/android2/notifications/alert\\n\\nBACKGROUND:\\nModal dialogs overlay screen content and prevent users from interacting with the content behind the modal dialog until it is dismissed. If sighted keyboard users or screen reader users can tab to content behind a modal dialog window, they may become disoriented or confused. Both keyboard focus and screen reader focus must be trapped within a modal dialog until it is dismissed. When both keyboard focus and browsing are trapped within a modal dialog, screen reader users are able to interact with it as intended."
    },
    {
        "IssueDescription": "Modal is closed, focus is not returned to trigger",
        "AssureDescID": "Modal is closed, focus is not returned to trigger",
        "RecShort": "Return focus to trigger or logical element",
        "HowToFix": "RULE:\\nFocus MUST be set on a logical element when a modal dialog is closed.\\n\\nHOW TO FIX:\\nFix this issue by using setOnDismissListener to detect when the user closes the modal and then use AccessibilityEvent.TYPE_VIEW_FOCUSED to send TalkBack focus back to the button used to open the modal dialog or, if that element no longer exists, on another element that provides a logical workflow.\\n\\nREFERENCE:\\nDeque University: https://dequeuniversity.com/class/android2/notifications/dialog\\nDeque University: https://dequeuniversity.com/class/android2/notifications/alert\\n\\nBACKGROUND:\\nWhen a modal dialog is closed, if focus is not explicitly placed back on an element, keyboard focus and screen reader focus will be lost - usually sending the focus back to the top of the screen. Screen reader users may become disoriented, not hearing their new location and not knowing where their focus is. When a modal dialog is closed, focus must be placed back on the element that triggered the modal dialog or, if that element no longer exists, on another element that provides a logical workflow. This allows screen readers to announce the element that has received focus so screen reader users know where they are and allows keyboard users to interact logically with the content."
    },
    {
        "IssueDescription": "Tab key focus order of UI elements is not logical",
        "AssureDescID": "NA",
        "RecShort": "Use android:nextFocusForward to change Tab key focus order",
        "HowToFix": "RULE:\\nReading order and focus order MUST follow a meaningful sequence for TalkBack and keyboard users.\\n\\nHOW TO FIX:\\nThe Android platform tries to figure out the most logical focus order based on each view's closest neighbor. Generally, views are focussed from left to right and top to bottom. In some cases, you may to change the focus order to reflect how the user uses your app.\\n\\nFix this issue by using android:nextFocusForward to change the Tab key focus order of interactive elements.\\n\\nREFERENCE:\\nDeque University: https://dequeuniversity.com/class/android2/semantic-structure-meaning/reading-focus-order\\nDeque University: https://dequeuniversity.com/class/android2/user-interaction/support-keyboard-nav\\nAndroid Developer: https://developer.android.com/training/keyboard-input/navigation\\n\\nBACKGROUND:\\nNOTE: \"TalkBack focus\" is not the same as \"keyboard focus\". Keyboard focus only goes to interactive elements (such as form controls and buttons), while TalkBack focus goes to both static content (such as text and images) as well as interactive content. Keyboard and TalkBack focus order is changed via different Android properties.\\n\\nWhen keyboard focusable components do not receive focus in a logical order, people with mobility impairments, reading disabilities, and low vision are all impacted. The keyboard focus order must be logical and consistent with the layout of the content. (Note: This does not mean that the focus order has to be identical to the visual order, as long as the user can still understand and operate the content.) A logical focus order makes interaction with content predictable for people who rely on a keyboard to interact with web content."
    },
    {
        "IssueDescription": "Arrow key focus order of UI elements is not logical",
        "AssureDescID": "NA",
        "RecShort": "Use android:nextFocusUp | Down | Left | Right to change arrow key focus order",
        "HowToFix": "RULE:\\nReading order and focus order MUST follow a meaningful sequence for TalkBack and keyboard users.\\n\\nHOW TO FIX:\\nThe Android platform tries to figure out the most logical focus order based on each view's closest neighbor. Generally, views are focussed from left to right and top to bottom. In some cases, you may want to change the focus order to reflect how the user uses your app.\\n\\nFix this issue by using android:nextFocusUp, android:nextFocusDown, android:nextFocusRight, and android:nextFocusLeft  to change the arrow key focus order of interactive elements.\\n\\nREFERENCE:\\nDeque University: https://dequeuniversity.com/class/android2/semantic-structure-meaning/reading-focus-order\\nDeque University: https://dequeuniversity.com/class/android2/user-interaction/support-keyboard-nav\\nAndroid Developer: https://developer.android.com/training/keyboard-input/navigation\\n\\nBACKGROUND:\\nNOTE: \"TalkBack focus\" is not the same as \"keyboard focus\". Keyboard focus only goes to interactive elements (such as form controls and buttons), while TalkBack focus goes to both static content (such as text and images) as well as interactive content. Keyboard and TalkBack focus order is changed via different Android properties.\\n\\nWhen keyboard focusable components do not receive focus in a logical order, people with mobility impairments, reading disabilities, and low vision are all impacted. The keyboard focus order must be logical and consistent with the layout of the content. (Note: This does not mean that the focus order has to be identical to the visual order, as long as the user can still understand and operate the content.) A logical focus order makes interaction with content predictable for people who rely on a keyboard to interact with web content."
    },
    {
        "IssueDescription": "Focus is lost or misplaced due to user interaction, content refresh, or update",
        "AssureDescID": "Focus is lost or misplaced due to user interaction or content update",
        "RecShort": "Place focus on logical element",
        "HowToFix": "RULE:\\nWhen content is added or deleted from a screen, focus (keyboard and TalkBack focus) MUST be managed logically and must never be lost.\\n\\nHOW TO FIX:\\nWhen elements are dynamically added or removed from the screen, be sure to explicitly manage the focus. For example: If a delete button is used to delete a row of data, place focus on the content immediately before or after the deleted content (according to what seems most logical in the design and workflow).\\n\\nREFERENCE:\\nhttps://dequeuniversity.com/class/android2/semantic-structure-meaning/reading-focus-order\\n\\nBACKGROUND:\\nWhen the layout of a screen changes, the TalkBack focus typically resets its position to the top of the screen. Therefore, when elements are dynamically added or removed from the screen, be sure to explicitly manage the keyboard and TalkBack focus by placing focus on an appropriate element. To maintain accessibility, shifting focus around an application needs to be handled carefully. Overuse of this practice is an easy way to frustrate screen reader users."
    }
]