[
    {"ID": "carousel","WidgetName": "Carousel"},
    {"ID": "calendar","WidgetName": "Date Picker"},
    {"ID": "GMaps","WidgetName": "Google Maps"},
    {"ID": "MegaMenu","WidgetName": "Mega Menu"},
    {"ID": "TabAccordian","WidgetName": "Tab Accordian"},
    {"ID": "TabPanel","WidgetName": "Tab Panel"},
    {"ID": "TreeView","WidgetName": "Tree View"},
    {"ID": "Video","WidgetName": "Video"}
]