[
    {
        "ID": "111d",
        "AssureCkpointID":"1.1.1.d Alternative Text (Decorative Images)",
        "SC": "1.1.1.d - Decorative Images",
        "Details": "111d Decorative Images"
    },
    {
        "IssueDescription": "Decorative image has non-empty alt attribute",
        "AssureDescID": "Decorative image has non-empty alt attribute",
        "RecShort": "Use empty alt or role=\"presentation\"",
        "Rule": "Images that do not convey content, are decorative, or are redundant to content that is already conveyed in text MUST be given null alternative text (alt=\"\"), ARIA role=\"presentation\", or implemented as CSS backgrounds.",
        "HowToFix": "Fix this issue by using an empty alt attribute (alt=\"\") on the <img> element.\\n\\n<a href=\"contact.html\"><img src=\"phone.png\" alt=\"\">Contact Us</a>",
        "Reference": "Deque University: https://dequeuniversity.com/class/images2/alt-text/decorative-redundant\\nW3C-WAI tutorial: https://www.w3.org/WAI/tutorials/images/",
        "Background": "Decorative images do not add information to the content of a page. Examples of decorative images include an image whose content is provided by adjacent text, or an image that is used just for visual effect such as a hero image, a background image, a stock photo, or a decorative flourish. Decorative images should be coded in such a way that screen readers can ignore them."
    },
    {
        "IssueDescription": "Decorative image has title attribute",
        "AssureDescID": "Decorative image has title attribute",
        "RecShort": "Remove title attribute",
        "Rule": "Images that do not convey content, are decorative, or are redundant to content that is already conveyed in text MUST be given null alternative text (alt=\"\"), ARIA role=\"presentation\", or implemented as CSS backgrounds.",
        "HowToFix": "Fix this issue by removing the title attribute and using an empty alt attribute (alt=\"\") on the <img> element.\\n\\n<a href=\"contact.html\"><img src=\"phone.png\" alt=\"\">Contact Us</a>",
        "Reference": "Deque University: https://dequeuniversity.com/class/images2/alt-text/decorative-redundant\\nW3C-WAI tutorial: https://www.w3.org/WAI/tutorials/images/",
        "Background": "Decorative images do not add information to the content of a page. Examples of decorative images include an image whose content is provided by adjacent text, or an image that is used just for visual effect such as a hero image, a background image, a stock photo, or a decorative flourish. Decorative images should be coded in such a way that screen readers can ignore them."
    },
    {
        "IssueDescription": "Decorative image missing empty alt attribute",
        "AssureDescID": "Decorative image missing empty alt attribute",
        "RecShort": "Provide empty alt attribute or role of presentation",
        "Rule": "Images that do not convey content, are decorative, or are redundant to content that is already conveyed in text MUST be given null alternative text (alt=\"\"), ARIA role=\"presentation\", or implemented as CSS backgrounds.",
        "HowToFix": "Fix this issue by using ONE of the following techniques:\\n1. Use an empty alt attribute (alt=\"\") on the <img> element (preferred method)\\n\\n<a href=\"contact.html\"><img src=\"phone.png\" alt=\"\">Contact Us</a>\\n\\n2. Use role=\"presentation\" on the <img> element.\\n\\n<a href=\"contact.html\"><img src=\"phone.png\" role=\"presentation\">Contact Us</a>",
        "Reference": "Deque University: https://dequeuniversity.com/class/images2/alt-text/decorative-redundant\\nW3C-WAI tutorial: https://www.w3.org/WAI/tutorials/images/",
        "Background": "Decorative images do not add information to the content of a page. Examples of decorative images include an image whose content is provided by adjacent text, or an image that is used just for visual effect such as a hero image, a background image, a stock photo, or a decorative flourish. Decorative images should be coded in such a way that screen readers can ignore them."
    }
]