[
    {
        "ID": "111g",
        "AssureCkpointID":"1.1.1.g Alternative Text (Captcha)",
        "SC": "1.1.1.g - Captcha",
        "Details": "111g Captcha"
    },
    {
        "IssueDescription": "Text alternative for CAPTCHA is not appropriate",
        "AssureDescID": "Text alternative for CAPTCHA is not appropriate",
        "RecShort": "Provide meaningful alternative text",
        "Rule": "Images that convey content MUST have programmatically-discernible alternative text.",
        "HowToFix": "Fix this issue by providing alternative text that describes the purpose of the CAPTCHA, such as \"Type the word in the image\" or \"Type the letters spoken in the audio\"",
        "Reference": "WCAG Technique G143 Providing a text alternative that describes the purpose of the CAPTCHA: https://www.w3.org/TR/WCAG-TECHS/G143.html\\nWCAG Technique\\nG144 Ensuring that the Web Page contains another CAPTCHA serving the same purpose using a different modality: https://www.w3.org/TR/WCAG-TECHS/G144.html",
        "Background": "CAPTCHAs are a controversial topic in the accessibility community. Every type of CAPTCHA will be unsolvable by users with certain disabilities. Providing two different forms of CAPTCHA on a given site ensures that most people with disabilities will find a form they can use. Because some users with disabilities will still not be able to access sites that use two different CAPTCHA techniques, additional recommended steps include:\\n\\n1. Providing more than two modalities of CAPTCHAs\\n2. Providing access to a human customer service representative who can bypass CAPTCHA\\n3. Not requiring CAPTCHAs for authorized users\\n\\n"
    },
    {
        "IssueDescription": "CAPTCHA is missing text alternative",
        "AssureDescID": "CAPTCHA is missing text alternative",
        "RecShort": "Provide alternative text",
        "Rule": "Images that convey content MUST have programmatically-discernible alternative text.",
        "HowToFix": "Fix this issue by providing alternative text that describes the purpose of the CAPTCHA, such as \"Type the word in the image\" or \"Type the letters spoken in the audio\"",
        "Reference": "WCAG Technique G143 Providing a text alternative that describes the purpose of the CAPTCHA: https://www.w3.org/TR/WCAG-TECHS/G143.html\\nWCAG Technique G144 Ensuring that the Web Page contains another CAPTCHA serving the same purpose using a different modality: https://www.w3.org/TR/WCAG-TECHS/G144.html",
        "Background": "CAPTCHAs are a controversial topic in the accessibility community. Every type of CAPTCHA will be unsolvable by users with certain disabilities. Providing two different forms of CAPTCHA on a given site ensures that most people with disabilities will find a form they can use. Because some users with disabilities will still not be able to access sites that use two different CAPTCHA techniques, additional recommended steps include:\\n\\n1. Providing more than two modalities of CAPTCHAs\\n2. Providing access to a human customer service representative who can bypass CAPTCHA\\n3. Not requiring CAPTCHAs for authorized users\\n\\n"
    },
    {
        "IssueDescription": "CAPTCHA task has only one option",
        "AssureDescID": "CAPTCHA task has only one option",
        "RecShort": "Provide alternate CAPTCHA option",
        "Rule": "CAPTCHA tests MUST have alternate forms using different input modalities, such as visual task and an audio task.",
        "HowToFix": "Fix this issue by including an additional CAPTCHA option that relies on using a sense other than sight.",
        "Reference": "WCAG Technique G143 Providing a text alternative that describes the purpose of the CAPTCHA: https://www.w3.org/TR/WCAG-TECHS/G143.html\\nWCAG Technique G144 Ensuring that the Web Page contains another CAPTCHA serving the same purpose using a different modality: https://www.w3.org/TR/WCAG-TECHS/G144.html",
        "Background": "CAPTCHAs are a controversial topic in the accessibility community. Every type of CAPTCHA will be unsolvable by users with certain disabilities. Providing two different forms of CAPTCHA on a given site ensures that most people with disabilities will find a form they can use. Because some users with disabilities will still not be able to access sites that use two different CAPTCHA techniques, additional recommended steps include:\\n\\n1. Providing more than two modalities of CAPTCHAs\\n2. Providing access to a human customer service representative who can bypass CAPTCHA\\n3. Not requiring CAPTCHAs for authorized users\\n\\n"
    }
]