[
    {
        "ID": "121b",
        "AssureCkpointID":"1.2.1.b Text or Audio Description (Prerecorded Video Only - No Dialogue)",
        "SC": "1.2.1.b - Text or aduio description - prerecorded video only - no dialogues",
        "Details": "121b Text or aduio description - prerecorded video only - no dialogues"
    },
    {
        "IssueDescription": "Text/audio description is hard to find",
        "AssureDescID": "Text/audio description is hard to find",
        "RecShort": "Text transcript or audio description must be in close proximity with video file",
        "Rule": "Prerecorded video-only content MUST be accompanied by an easily-reachable text transcript or audio description.",
        "HowToFix": "Fix this issue by:\\n1. For a text transcript use ONE of the following techniques:\\nMethod 1: Place the transcript directly on the page with the audio or video player.\\nMethod 2: Provide a link to the transcript.\\nMethod 3: Provide an interactive transcript, allowing users to access specific places within the video or audio content.\\nMethod 4: Provide a link to the transcript within the HTML5 <video> element.\\n2. For an audio description use ONE of the following techniques:\\nMethod 1: Create a separate version of the video with embedded audio descriptions.\\nMethod 2: Create a separate audio file of just the audio descriptions.",
        "Reference": "Deque University: https://dequeuniversity.com/class/multimedia2/transcripts/methods-of-presenting\\nDeque University: https://dequeuniversity.com/class/multimedia2/audio-descriptions/methods",
        "Background": "People who are blind cannot see video-only content. In order to give people who cannot see access to the information conveyed by video-only content - such as a silent movie or a how-to-video with no narration - it must have an accompanying text transcript or audio description. The text transcript or audio description must describe all important visual information such as scenes, important actions, text on the screen, facial expressions, etc. A text transcript gives access to the video content to both people who are blind and to people who are deafblind through a screen reader with refreshable braille reader. People who are blind can listen to the audio description, but this option excludes people who are deafblind.\\n\\n"
    },
    {
        "IssueDescription": "Text/audio description is inadequate",
        "AssureDescID": "Text/audio description is inadequate",
        "RecShort": "Provide a complete description of the video content",
        "Rule": "The text transcript or audio description for video-only content MUST accurately convey all important visual information.",
        "HowToFix": "Fix this issue by ensuring that the text transcript or audio description conveys all important visual information such as scenes, important actions, text on the screen, facial expressions, etc.",
        "Reference": "Deque University: https://dequeuniversity.com/class/multimedia2/transcripts/what-to-include\\nDeque University: https://dequeuniversity.com/class/multimedia2/audio-descriptions/what-to-include\\nDeque University: https://dequeuniversity.com/class/multimedia2/audio-descriptions/extended",
        "Background": "People who are blind cannot see video-only content. In order to give people who cannot see access to the information conveyed by video-only content - such as a silent movie or a how-to-video with no narration - it must have an accompanying text transcript or audio description. The text transcript or audio description must describe all important visual information such as scenes, important actions, text on the screen, facial expressions, etc. A text transcript gives access to the video content to both people who are blind and to people who are deafblind through a screen reader with refreshable braille reader. People who are blind can listen to the audio description, but this option excludes people who are deafblind."
    },
    {
        "IssueDescription": "No text or audio description available",
        "AssureDescID": "No text or audio description available",
        "RecShort": "Provide text or audio description",
        "Rule": "Prerecorded video-only content MUST be accompanied by an easily-reachable text transcript or audio description.",
        "HowToFix": "Fix this issue by using ONE of the following techniques:\\n1. Text Transcript: A full text description that conveys all important visual information such as scenes, important actions, text on the screen, facial expressions, etc.\\n2. Audio Description: A synchronized soundtrack with an audio description that conveys all important visual information such as scenes, important actions, text on the screen, facial expressions, etc.",
        "Reference": "Deque University: https://dequeuniversity.com/class/multimedia2/transcripts/when-needed\\nDeque University:https://dequeuniversity.com/class/multimedia2/audio-descriptions/when-needed",
        "Background": "People who are blind cannot see video-only content. In order to give people who cannot see access to the information conveyed by video-only content - such as a silent movie or a how-to-video with no narration - it must have an accompanying text transcript or audio description. The text transcript or audio description must describe all important visual information such as scenes, important actions, text on the screen, facial expressions, etc. A text transcript gives access to the video content to both people who are blind and to people who are deafblind through a screen reader with refreshable braille reader. People who are blind can listen to the audio description, but this option excludes people who are deafblind.\\n\\n"
    }
]