[
    {
        "ID": "133b",
        "AssureCkpointID":"1.3.3.b Sound Cues",
        "SC": "1.3.3.b Sound Cues",
        "Details": "133b Sound Cues"
    },
    {
        "IssueDescription": "Information relies on ability to hear",
        "AssureDescID": "Information relies on ability to hear",
        "RecShort": "Ensure instructions do not rely on ability to hear",
        "Rule": "Instructions for an element MUST NOT rely solely on references to sensory characteristics.",
        "HowToFix": "Fix this issue by ensuring that information conveyed by audio cues is also available in text so people who are deaf or hard of hearing can still get the information or follow the instructions.",
        "Reference": "Deque University: https://dequeuniversity.com/class/forms2/instructions/inputs\\nWCAG Technique G96: Providing textual identification of items that otherwise rely only on sensory information to be understood: https://www.w3.org/TR/WCAG20-TECHS/G96",
        "Background": "When instructions to use content rely on a person's ability to hear, people who are deaf or hard of hearing are at a risk of being unable to understand or follow the instructions. Instructions may include audio cues as long as the information is conveyed in other ways as well, for example in text. Providing additional information other than audio cues will allow people who are deaf or hard of hearing to understand the instructions.\\n\\n"
    }
]