[
    {
        "ID": "1410a",
        "AssureCkpointID":"1.4.10.a Reflow",
        "SC": "1.4.10.a - Reflow",
        "Details": "1410a Reflow"
    },
    {
        "IssueDescription": "Horizontal Scrolling",
        "AssureDescID": "Horizontal scrolling at 320px width",
        "RecShort": "All techniques",
        "Rule": "The content MUST be viewable without scrolling horizontally when the viewport is set to 320 CSS pixels wide.",
        "HowToFix": "Fix this issue by using ANY of the following techniques:\\n1. Use CSS techniques such as media queries, grids, or flexbox to reflow content down to 320px width.\\n2. Provide options within the content to switch to a layout that does not require the user to scroll horizontally to read a line of text.",
        "Reference": "Deque University:https://dequeuniversity.com/class/responsive-zoom2/zoom/linear-text-reflow\\nhttps://dequeuniversity.com/class/responsive-zoom2/responsive/\\nWCAG Understanding document:\\nhttps://www.w3.org/WAI/WCAG21/Understanding/reflow",
        "Background": "People with low vision often read content on a desktop computer by scaling content using the browser zoom - up to 400%. When zooming content creates the need to scroll in the direction of reading in order to reveal lines that are cut off by the viewport, it significantly increases the effort required to read text and sometimes causes content hidden off-screen with no way to scroll or pan to it. When content is created so that it reflows at screen widths down to 320px, users can view a web page in a 1280px width browser screen and zoom the content to 400% (320px) without having to scroll side to side to read and without losing access to content."
    },
{
        "IssueDescription": "Content overlaps other content at 320px width",
        "AssureDescID": "Content overlaps other content at 320px width",
        "RecShort": "Use CSS to reflow",
        "Rule": "Content MUST be presented without loss of information or functionality when the viewport is set to 320 CSS pixels wide.",
        "HowToFix": "Fix this issue by ensuring content does not overlap other content when the screen width is set to 320px by using techniques such as CSS media queries, grids, or flexbox to reflow content down to 320px width.",
        "Reference": "Deque University:https://dequeuniversity.com/class/responsive-zoom2/zoom/linear-text-reflow\\nhttps://dequeuniversity.com/class/responsive-zoom2/responsive/\\nWCAG Understanding document:https://www.w3.org/WAI/WCAG21/Understanding/reflow",
        "Background": "People with low vision often read content on a desktop computer by scaling content using the browser zoom - up to 400%. When zooming causes content to overlap other content, users with low vision may not be able to see or use that content. When content is created so that it reflows without losing information or functionality at screen widths down to 320px, users can view a web page in a 1280px width browser screen and zoom the content to 400% (320px) without having to scroll side to side to read and without losing access to content."
    }
]