[
    {
        "ID": "141b",
        "AssureCkpointID":"1.4.1.b Link Color Contrast",
        "SC": "1.4.1.b - Link color contrast",
        "Details": "141b Link color contrast"
    },
    {
        "IssueDescription": "Link contrast is not at least 3:1 with surrounding text",
        "AssureDescID": "Link contrast is not at least 3:1 with surrounding text",
        "RecShort": "Increase contrast / add additional indicator",
        "Rule": "Color alone MUST NOT be used to distinguish links from surrounding text unless the color contrast between the link and the surrounding text is at least 3:1 and an additional differentiation (e.g. underline, outline, etc.) is provided when the link is hovered or receives focus.",
        "HowToFix": "Fix this issue by using ONE of the following techniques:\\n1. Leave the link text and body text contrast as-is, but add an additional indicator (e.g. underline, outline, etc) to the link text when it is in its default state.\\n2. Increase the contrast between the link text and the body text so that the ratio is at least 3.0 to 1. Be sure to keep the additional indicator (e.g. underline, outline, etc) on hover.",
        "Reference": "Deque University: https://dequeuniversity.com/class/visual-design2/color/distinguish-links-from-text\\nWCAG Technique G183: Using a contrast ratio of 3:1 with surrounding text and providing additional visual cues on focus for links or controls where color alone is used to identify them: https://www.w3.org/TR/WCAG20-TECHS/G183.html",
        "Background": "When link text is visually differentiated from surrounding body text only by color, people who are color blind or with low vision may miss links. Link text must be differentiated from surrounding text either by: 1) an underline (or similar) in the default state, or 2) a contrast ratio of at least 3.0 to 1 between link text and surrounding text PLUS an underline (or similar) on mouse hover. When link text is adequately distinguished from surrounding text, people who have visual disabilities will be less likely to miss links.\\n\\n"
    },
    {
        "IssueDescription": "Link contrast is not 3:1 with surrounding text & no added link indicator",
        "AssureDescID": "Link contrast is not 3:1 with surrounding text & no added link indicator",
        "RecShort": "Increase contrast / add additional indicator",
        "Rule": "Color alone MUST NOT be used to distinguish links from surrounding text unless the color contrast between the link and the surrounding text is at least 3:1 and an additional differentiation (e.g. underline, outline, etc.) is provided when the link is hovered or receives focus.",
        "HowToFix": "Fix this issue by using ONE of the following techniques:\\n1. Leave the link text and body text contrast as-is, but add an additional indicator (e.g. underline, outline, etc) to the link text when it is in its default state.\\n2. Increase the contrast between the link text and the body text so that the ratio is at least 3.0 to 1 AND add an additional indicator (e.g. underline, outline, etc) to the link text when it is in the hover state.",
        "Reference": "Deque University: https://dequeuniversity.com/class/visual-design2/color/distinguish-links-from-text\\nWCAG Technique G183: Using a contrast ratio of 3:1 with surrounding text and providing additional visual cues on focus for links or controls where color alone is used to identify them: https://www.w3.org/TR/WCAG20-TECHS/G183.html",
        "Background": "When link text is visually differentiated from surrounding body text only by color, people who are color blind or with low vision may miss links. Link text must be differentiated from surrounding text either by: 1) an underline (or similar) in the default state, or 2) a contrast ratio of at least 3.0 to 1 between link text and surrounding text PLUS an underline (or similar) on mouse hover. When link text is adequately distinguished from surrounding text, people who have visual disabilities will be less likely to miss links.\\n\\n"
    },
    {
        "IssueDescription": "Added link indicator on hover is missing",
        "AssureDescID": "Added link indicator on hover is missing",
        "RecShort": "Add additional indicator on hover/focus",
        "Rule": "Color alone MUST NOT be used to distinguish links from surrounding text unless the color contrast between the link and the surrounding text is at least 3:1 and an additional differentiation (e.g. underline, outline, etc.) is provided when the link is hovered or receives focus.",
        "HowToFix": "Fix this issue by adding an additional indicator (e.g. underline, outline, etc) to the link text when it is in the hover state. Be sure to maintain the contrast between the link text and the body text so that the ratio is at least 3.0 to 1.",
        "Reference": "Deque University: https://dequeuniversity.com/class/visual-design2/color/distinguish-links-from-text\\nWCAG Technique G183: Using a contrast ratio of 3:1 with surrounding text and providing additional visual cues on focus for links or controls where color alone is used to identify them: https://www.w3.org/TR/WCAG20-TECHS/G183.html",
        "Background": "When link text is visually differentiated from surrounding body text only by color, people who are color blind or with low vision may miss links. Link text must be differentiated from surrounding text either by: 1) an underline (or similar) in the default state, or 2) a contrast ratio of at least 3.0 to 1 between link text and surrounding text PLUS an underline (or similar) on mouse hover. When link text is adequately distinguished from surrounding text, people who have visual disabilities will be less likely to miss links.\\n\\n"
    }
]