[
    {
        "ID": "143a",
        "AssureCkpointID":"1.4.3.a Color Contrast (regular text)",
        "SC": "1.4.3.a - Color contrast ratio for regular text",
        "Details": "143a Color contrast ratio for regular text"
    },
    {
        "IssueDescription": "Text content lacks 4.5:1 contrast ratio",
        "AssureDescID": "Text content lacks 4.5:1 contrast ratio",
        "RecShort": "Adust text or background to increase contrast",
        "Rule": "Small text (under 18 point regular font or 14 point bold font) MUST have a contrast ratio of at least 4.5 to 1 with the background.",
        "HowToFix": "Fix this issue by adjusting the text and/or background to increase the contrast to at least 4.5 to 1.",
        "Reference": "Deque University: https://dequeuniversity.com/class/visual-design2/contrast/text-against-background",
        "Background": "People who have low vision or are colorblind may have difficulty reading text if the contrast between the text its background is insufficient. When the contrast ratio between text and its background is adequate, people who have low vision or are colorblind are more likely to be able to read the text."
    },
    {
        "IssueDescription": "Link or button text lacks 4.5:1 contrast ratio on hover or focus",
        "AssureDescID": "Link or button text lacks 4.5:1 contrast ratio on hover or focus",
        "RecShort": "Adjust link focus/hover state color to increase contrast",
        "Rule": "Small text (under 18 point regular font or 14 point bold font) MUST have a contrast ratio of at least 4.5 to 1 with the background.",
        "HowToFix": "Fix this issue by adjusting the color of the hovered or focused link text and/or background to increase the contrast to at least 4.5 to 1.",
        "Reference": "Deque University: https://dequeuniversity.com/class/visual-design2/contrast/text-against-background",
        "Background": "People who have low vision or are colorblind may have difficulty reading text if the contrast between the text its background is insufficient. When the contrast ratio between text and its background is adequate, people who have low vision or are colorblind are more likely to be able to read the text."
    },
    {
        "IssueDescription": "Placeholder text lacks 4.5:1 contrast ratio",
        "AssureDescID": "Placeholder text lacks 4.5:1 contrast ratio",
        "RecShort": "Adjust placeholder text to increase contrast",
        "Rule": "\\nSmall text (under 18 point regular font or 14 point bold font) MUST have a contrast ratio of at least 4.5 to 1 with the background. This issue applies to placeholder text as well.",
        "HowToFix": "The Firefox browser applies an opacity of less than 1 to placeholder text color that causes the rendered text color to fall below contrast ratio requirements. Fix this issue by using CSS to ensure that the rendered placeholder text has an opacity of 1. For example:\\n\\n:-moz-placeholder { /* Firefox 18- */\\ncolor: #767676;\\nopacity: 1;\\n}\\n\\n::-moz-placeholder {  /* Firefox 19+ */\\ncolor: #767676;\\nopacity: 1;\\n}",
        "Reference": "W3C-WAI tutorial: https://www.w3.org/WAI/tutorials/forms/instructions/#styling",
        "Background": "People who have low vision or are colorblind may have difficulty reading text if the contrast between the text its background is insufficient. When the contrast ratio between text and its background is adequate, people who have low vision or are colorblind are more likely to be able to read the text."
    },
    {
        "IssueDescription": "Text over an image lacks 4.5:1 contrast ratio",
        "AssureDescID": "Text over an image lacks 4.5:1 contrast ratio",
        "RecShort": "Adjust image of text color or background color to increase contrast",
        "Rule": "Small text and images of small text (under 18 point regular font or 14 point bold font) MUST have a contrast ratio of at least 4.5 to 1 with the background.\\nImages of text need high contrast ratio against background.",
        "HowToFix": "Fix this issue by adjusting the text and/or background to increase the contrast to at least 4.5 to 1. Common techniques include:\\n1. Applying an opaque or semi-opaque background behind the text.\\n2. Lighten or darken part or all of the image to increase the overall contrast between the text and the image.\\n3. Use a border around the letters to create sufficient contrast.",
        "Reference": "Deque University: https://dequeuniversity.com/class/visual-design2/contrast/text-against-background",
        "Background": "People who have low vision or are colorblind may have difficulty reading text if the contrast between the text its background is insufficient. When the contrast ratio between text and its background is adequate, people who have low vision or are colorblind are more likely to be able to read the text.\\n"
    }
]