[
    {
        "ID": "143b",
        "AssureCkpointID":"1.4.3.b Color Contrast (large text)",
        "SC": "1.4.3.b - Color contrast for large text or link or image of text",
        "Details": "143b Color contrast for large text or link or image of text"
    },
    {
        "IssueDescription": "Large text content lacks 3:1 contrast ratio",
        "AssureDescID": "Large text content lacks 3:1 contrast ratio",
        "RecShort": "Adjust text or background to increase contrast",
        "Rule": "Large text and images of large text (at or over 18 point or 14 point bold) MUST have a contrast ratio of at least 3 to 1 with the background.",
        "HowToFix": "Fix this issue by adjusting the text and/or background to increase the contrast to at least 3 to 1.",
        "Reference": "Deque University: https://dequeuniversity.com/class/visual-design2/contrast/text-against-background",
        "Background": "People who have low vision or are colorblind may have difficulty reading text if the contrast between the text its background is insufficient. When the contrast ratio between text and its background is adequate, people who have low vision or are colorblind are more likely to be able to read the text.\\n\\n"
    },
    {
        "IssueDescription": "Large link or button text lacks 3:1 contrast ratio on hover or focus",
        "AssureDescID": "Large link or button text lacks 3:1 contrast ratio on hover or focus",
        "RecShort": "Adjust link focus/hover state color to increase contrast",
        "Rule": "Large text and images of large text (at or over 18 point or 14 point bold) MUST have a contrast ratio of at least 3 to 1 with the background.",
        "HowToFix": "Fix this issue by adjusting the color of the hovered or focused link text and/or background to increase the contrast to at least 3 to 1.",
        "Reference": "Deque University: https://dequeuniversity.com/class/visual-design2/contrast/text-against-background",
        "Background": "People who have low vision or are colorblind may have difficulty reading text if the contrast between the text its background is insufficient. When the contrast ratio between text and its background is adequate, people who have low vision or are colorblind are more likely to be able to read the text.\\n\\n"
    },
    {
        "IssueDescription": "Large text over an image lacks 3:1 contrast ratio",
        "AssureDescID": "Large text over an image lacks 3:1 contrast ratio",
        "RecShort": "Adust large image of text color or background color to increase contrast",
        "Rule": "Large text and images of large text (at or over 18 point or 14 point bold) MUST have a contrast ratio of at least 3 to 1 with the background.",
        "HowToFix": "Fix this issue by adjusting the text and/or background to increase the contrast to at least 3 to 1. Common techniques include:\\n1. Applying an opaque or semi-opaque background behind the text.\\n2. Lighten or darken part or all of the image to increase the overall contrast between the text and the image.\\n3. Use a border around the letters to create sufficient contrast.",
        "Reference": "Deque University: https://dequeuniversity.com/class/visual-design2/contrast/text-against-background",
        "Background": "People who have low vision or are colorblind may have difficulty reading text if the contrast between the text its background is insufficient. When the contrast ratio between text and its background is adequate, people who have low vision or are colorblind are more likely to be able to read the text.\\n"
    }
]