[
    {
        "ID": "222b",
        "AssureCkpointID":"2.2.2.b Automatically Updating Content",
        "SC": "2.2.2.b - Automatically Updating content",
        "Details": "222b Automatically Updating content"
    },
    {
        "IssueDescription": "Carousel has no stop/pause mechanism",
        "AssureDescID": "Carousel has no stop/pause mechanism",
        "RecShort": "Provide mechanism to stop, pause auto-updating content",
        "Rule": "A method MUST be provided to pause, stop, or hide any automatically updating content, or to manually control the timing of the updates.",
        "HowToFix": "Fix this issue by providing an accessible mechanism to pause and restart carousel slides or to change the frequency with which the slides change.",
        "Reference": "Deque Univeristy: https://dequeuniversity.com/class/multimedia2/auto-play\\nDeque University: https://dequeuniversity.com/class/input-methods2/motion/moving-disappearing-content",
        "Background": "Content that auto-updates - such as auto-advancing presentations and messages, and carousels, weather information, news, and stock prices - can be problematic for people who have trouble reading text quickly, people who have attention deficit disorders or other cognitive disabilities, and screen reader users. Auto-updating information must have an accessible mechanism to pause, stop, or hide it, or to control the timing of the updates. The ability to control auto-updating content allows people to consume information in a way that best suits their needs."
    },
    {
        "IssueDescription": "No control mechanism provided for automatically updating content",
        "AssureDescID": "No control mechanism provided for automatically updating content",
        "RecShort": "Provide mechanism to stop, pause auto-updating content",
        "Rule": "A method MUST be provided to pause, stop, or hide any automatically updating content, or to manually control the timing of the updates.",
        "HowToFix": "Fix this issue by providing an accessible mechanism to pause or hide the auto updating content or to control the frequency with which content is updated.",
        "Reference": "Deque Univeristy: https://dequeuniversity.com/class/multimedia2/auto-play\\nDeque University: https://dequeuniversity.com/class/input-methods2/motion/moving-disappearing-content",
        "Background": "Content that auto-updates - such as auto-advancing presentations and messages, and carousels, weather information, news, and stock prices - can be problematic for people who have trouble reading text quickly, people who have attention deficit disorders or other cognitive disabilities, and screen reader users. Auto-updating information must have an accessible mechanism to pause, stop, or hide it, or to control the timing of the updates. The ability to control auto-updating content allows people to consume information in a way that best suits their needs."
    }
]