[
    {
        "ID": "231a",
        "AssureCkpointID":"2.3.1.a Flashing Content",
        "SC": "2.3.1.a - Three flashes are more",
        "Details": "231a Three flashes are more"
    },
    {
        "IssueDescription": "Large flashing content",
        "AssureDescID": "Large flashing content",
        "RecShort": "Eliminate flashing or make small",
        "Rule": "A page MUST NOT contain content that flashes more than 3 times per second unless that flashing content is sufficiently small, the flashes are of low contrast, and do not violate general flash thresholds.",
        "HowToFix": "Fix this issue by using ONE of the following techniques:\\n1. Ensure that no content on the screen flashes more than 3 times per second.\\n2. Ensure that content that flashes more than 3 times per second is sufficiently small: smaller than a contiguous area of 21,824 sq pixels (any shape).\\n3. Ensure that content that flashes more than 3 times per second has a low enough contrast.\\n\\nAll three of the above techniques can be measured by a tool such as The Trace Center's Photosensitive Epilepsy Analysis Tool (PEAT).",
        "Reference": "Deque University: https://dequeuniversity.com/class/multimedia2/seizure-inducing-flashes/flashing-content\\nPhotosensitive Epilepsy Analysis Tool: https://trace.umd.edu/peat",
        "Background": "Flashing or strobe-type effects in videos, graphics, or animations can put some people — those with photosensitive epilepsy — at risk for seizures. To be on the safe side, you should consider eliminating ALL flashes. However, small flash areas or very low contrast flashes may be acceptable from a seizure perspective, even though they are still likely to be annoying and distracting, which can be an issue for people with attention deficit disorders or cognitive disabilities."
    }
]