[
    {
        "ID": "324a",
        "AssureCkpointID":"3.2.4.a Consistent Identification",
        "SC": "3.2.4.a - Consistent identification",
        "Details": "324a Consistent identification"
    },
    {
        "IssueDescription": "Component labeling is inconsistent",
        "AssureDescID": "Component labeling is inconsistent",
        "RecShort": "Labels must be consistently identified",
        "Rule": "Features such as labels, names, and text alternatives for content that have the same functionality across multiple web pages MUST be consistently identified.",
        "HowToFix": "Fix this issue by ensuring that elements that have the same functionality across multiple pages are labeled consistently. This requirement extends to both visible labels and non-visible labels (such as an alt attribute or an aria-label attribute used on an icon or button).",
        "Reference": "Deque University: https://dequeuniversity.com/class/semantic-structure2/links/link-text",
        "Background": "When interactive components - such as links, buttons, active icons, custom controls - with the same functionality are used across multiple pages but are not labeled consistently, some people may be confused about what to expect when using a component or have difficulty locating a desired functionality. This especially impacts people who are blind, people with low vision, and people with cognitive disabilities. Ensuring that interactive components with the same functionality are labeled consistently across all pages will allow people to more efficiently and confidently find desired functions on a set of pages or web site."
    },
    {
        "IssueDescription": "Form control identification is inconsistent",
        "AssureDescID": "Form control identification is inconsistent",
        "RecShort": "Form controls must be consistently identified",
        "Rule": "Features such as labels, names, and text alternatives for content that have the same functionality across multiple web pages MUST be consistently identified.",
        "HowToFix": "Fix this issue by ensuring that form controls that have the same functionality across multiple pages are labeled consistently. This requirement extends to both visible labels and non-visible labels (such as an alt attribute or an aria-label attribute).",
        "Reference": "Deque University: https://dequeuniversity.com/class/semantic-structure2/links/link-text",
        "Background": "When interactive components - such as links, buttons, active icons, custom controls - with the same functionality are used across multiple pages but are not labeled consistently, some people may be confused about what to expect when using a component or have difficulty locating a desired functionality. This especially impacts people who are blind, people with low vision, and people with cognitive disabilities. Ensuring that interactive components with the same functionality are labeled consistently across all pages will allow people to more efficiently and confidently find desired functions on a set of pages or web site.\\n"
    },
    {
        "IssueDescription": "Link identification is inconsistent",
        "AssureDescID": "Link identification is inconsistent",
        "RecShort": "Links must be consistently identified",
        "Rule": "Features such as labels, names, and text alternatives for content that have the same functionality across multiple web pages MUST be consistently identified.",
        "HowToFix": "Fix this issue by ensuring that links that have the same destination across multiple pages have consistent link text. This requirement extends to both visible link text and non-visible visible link text (such as an alt attribute or an aria-label attribute).",
        "Reference": "Deque University: https://dequeuniversity.com/class/semantic-structure2/links/link-text",
        "Background": "When interactive components - such as links, buttons, active icons, custom controls - with the same functionality are used across multiple pages but are not labeled consistently, some people may be confused about what to expect when using a component or have difficulty locating a desired functionality. This especially impacts people who are blind, people with low vision, and people with cognitive disabilities. Ensuring that interactive components with the same functionality are labeled consistently across all pages will allow people to more efficiently and confidently find desired functions on a set of pages or web site."
    }
]