[
    {
        "ID": "332a",
        "AssureCkpointID":"3.3.2.a Visible Labels",
        "SC": "3.3.2.a - Visible labels",
        "Details": "332a Visible labels"
    },
    {
        "IssueDescription": "Visible group label missing",
        "AssureDescID": "Visible group label missing",
        "RecShort": "Provide visible group label",
        "Rule": "Group labels MUST be visible.",
        "HowToFix": "Fix this issue by providing a visible group label for the set of form fields.",
        "Reference": "Deque University: https://dequeuniversity.com/class/forms2/group-labels/visibility",
        "Background": "Filling out forms correctly can be one of the more time consuming and frustrating online user experiences, and it can be even more challenging for people with disabilities. The single easiest way to prevent user errors is by providing clear labels and instructions that are available to everyone at all times. Labels and instructions should:\\n1) be clear and informative, \\n2) disclose any constraints such as required data formats or ranges, and \\n3) identify required fields. Well-designed labels and instructions provide enough information so people can fill out forms without undue confusion or errors."
    },
    {
        "IssueDescription": "Label is not persistent",
        "AssureDescID": "Label is not persistent",
        "RecShort": "Provide always visible label",
        "Rule": "Labels MUST be visible",
        "HowToFix": "Fix this issue by ensuring that the form field has a visible label and it is always visible.",
        "Reference": "Deque University: https://dequeuniversity.com/class/forms2/labels/visibility",
        "Background": "Filling out forms correctly can be one of the more time consuming and frustrating online user experiences, and it can be even more challenging for people with disabilities. The single easiest way to prevent user errors is by providing clear labels and instructions that are available to everyone at all times. Labels and instructions should:\\n1) be clear and informative,\\n2) disclose any constraints such as required data formats or ranges, and \\n3) identify required fields. Well-designed labels and instructions provide enough information so people can fill out forms without undue confusion or errors."
    },
    {
        "IssueDescription": "Visible label missing",
        "AssureDescID": "Visible label missing",
        "RecShort": "Provide always visible label",
        "Rule": "Labels MUST be visible.",
        "HowToFix": "Fix this issue by ensuring that the form field has a visible label and it is always visible.",
        "Reference": "Deque University: https://dequeuniversity.com/class/forms2/labels/visibility",
        "Background": "Filling out forms correctly can be one of the more time consuming and frustrating online user experiences, and it can be even more challenging for people with disabilities. The single easiest way to prevent user errors is by providing clear labels and instructions that are available to everyone at all times. Labels and instructions should:\\n1) be clear and informative,\\n2) disclose any constraints such as required data formats or ranges, and \\n3) identify required fields. Well-designed labels and instructions provide enough information so people can fill out forms without undue confusion or errors."
    }
]