[
    {
        "ID": "332c",
        "AssureCkpointID":"3.3.2.c Required Form Fields",
        "SC": "3.3.2.c - Required Fields",
        "Details": "332c Required Fields"
    },
    {
        "IssueDescription": "Required field not identified by label, instuctions or error message",
        "AssureDescID": "Required field not identified by label, instuctions or error message",
        "RecShort": "use label, instructions or error message",
        "Rule": "The form validation process MUST include an error message explaining that a field is required if the field isn't identified as required both visually and programmatically in the form's initial state.",
        "HowToFix": "Fix this issue by using ONE OR MORE of the following techniques:\\n1. Use the field label or legend to indicate in text that it is a required field.\\n2. Provide text instructions at the beginning of the form or set of fields that describes which fields are required (or optional).\\n3. Provide an error message that indicates the required field(s) that was/were not completed.",
        "Reference": "Deque University: https://dequeuniversity.com/class/forms2/instructions/required-fields",
        "Background": "Filling out forms correctly can be one of the more time consuming and frustrating online user experiences, and it can be even more challenging for people with disabilities. The single easiest way to prevent user errors is by providing clear labels and instructions that are available to everyone at all times. Labels and instructions should:\\n1) be clear and informative,\\n2) disclose any constraints such as required data formats or ranges, and\\n3) identify required fields.\\nWell-designed labels and instructions provide enough information so people can fill out forms without undue confusion or errors."
    }
]