[
    {
        "ID": "111a",
        "SC": "1.1.1.a - Active Images",
        "AssureCkpointID":"1.1.1.a Alternative Text (Active Images)",
        "Details": ""
    },
    {
        "IssueDescription": "Active image missing alternative text",
        "AssureDescID": "Alt text is missing",
        "RecShort": "Use accessibilityLabel",
        "HowToFix": "RULE:\\nImages that are active MUST have an accessibility label that describes the purpose or function of the image.\\n\\nHOW TO FIX:\\nFix the issue by using the accessibilityLabel to provide an accessible name for the active image.\\n\\nREFERENCE:\\nDeque University: https://dequeuniversity.com/class/ios2/images/alternative-text\\n\\nBACKGROUND:\\nPeople who are blind cannot see images on a screen. In order to give people who cannot see an image access to the information conveyed by the image, it must have a text alternative. The text alternative must describe the information or function represented by the image. Screen readers can then use the alternative text to convey that information to the screen reader user.\\nFor actionable or functional images - such as links or buttons - the alternative text must describe the destination, purpose, or function of the image - not necessarily the image itself. For example, the alternative text for an image that is a link or a button will describe the link destination or the button function, not the shape or other visual characteristics of the image."
    },
    {
        "IssueDescription": "Alternative text is not meaningful",
        "AssureDescID": "Alt text is not meaningful",
        "RecShort": "Provide meaningful accessibilityLabel",
        "HowToFix": "RULE:\\nImages that are active MUST have an accessibility label that describes the purpose or function of the image.\\n\\nHOW TO FIX:\\nFix this issue by ensuring that the accessibilityLabel for the active image clearly describes its destination, purpose, or function.\\n\\nREFERENCE:\\nDeque University: https://dequeuniversity.com/class/ios2/images/alternative-text#meaningful-text-ios\\n\\nBACKGROUND:\\nPeople who are blind cannot see images on a screen. In order to give people who cannot see an image access to the information conveyed by the image, it must have a text alternative. The text alternative must describe the information or function represented by the image. Screen readers can then use the alternative text to convey that information to the screen reader user.\\nFor actionable or functional images - such as links or buttons - the alternative text must describe the destination, purpose, or function of the image - not necessarily the image itself. For example, the alternative text for an image that is a link or a button will describe the link destination or the button function, not the shape or other visual characteristics of the image."
    },
    {
        "IssueDescription": "Alternative text does not match dynamically changing images",
        "AssureDescID": "Alt text does not match dynamically changing image",
        "RecShort": "Update accessibilityLabel as image changes",
        "HowToFix": "RULE:\\nImages that are active MUST have an accessibility label that describes the purpose or function of the image. Dynamically changing images MUST have an accessibilityLabel that updates as the image changes.\\n\\nHOW TO FIX:\\nFix this issue by updating the accessibilityLabel as the image changes.\\n\\nREFERENCE:\\nDeque University: https://dequeuniversity.com/class/ios2/images/alternative-text#meaningful-text-ios\\n\\nBACKGROUND:\\nPeople who are blind cannot see images on a screen. In order to give people who cannot see an image access to the information conveyed by the image, it must have a text alternative. The text alternative must describe the information or function represented by the image. Screen readers can then use the alternative text to convey that information to the screen reader user.\\nFor actionable or functional images - such as links or buttons - the alternative text must describe the destination, purpose, or function of the image - not necessarily the image itself. For example, the alternative text for an image that is a link or a button will describe the link destination or the button function, not the shape or other visual characteristics of the image."
    }
]