[
    {
        "ID": "111c",
        "SC": "1.1.1.c - Complex Images",
        "AssureCkpointID":"1.1.1.c Alternative Text (Complex Images)",
        "Details": "111c Complex Images"
    },
    {
        "IssueDescription": "Complex image is missing text alternative",
        "AssureDescID": "NA",
        "RecShort": "Provide full image description in accessibilityLabel",
        "HowToFix": "RULE:\\nImages that are too complex to be fully described in a short text alternative MUST have their purpose described using an extended text alternative.\\nHOW TO FIX:\\nFix the issue by including all of the important information presented by the complex image, and is not provided elsewhere in the text on the screen, in the accessibilityLabel for the image.\\nREFERENCE:\\nDeque University: https://dequeuniversity.com/class/ios2/images/alternative-text#complex-text-alt-ios\\nBACKGROUND:\\nPeople who are blind cannot see images on a screen. In order to give people who cannot see an image access to the information conveyed by the image, it must have a text alternative. The text alternative must describe the information or function represented by the image. Screen readers can then use the alternative text to convey that information to the screen reader user."
    },
    {
        "IssueDescription": "Long alternative text is not meaningful",
        "AssureDescID": "Long alt text not adequate to convey meaning",
        "RecShort": "Provide full image description in accessibilityLabel",
        "HowToFix": "RULE:\\nImages that are too complex to be fully described in a short text alternative MUST have their purpose described using an extended text alternative.\\nHOW TO FIX:\\nFix the issue by including all of the important information presented by the complex image, and is not provided elsewhere in the text on the screen, in the accessibilityLabel for the image.\\nREFERENCE:\\nDeque University: https://dequeuniversity.com/class/ios2/images/alternative-text#complex-text-alt-ios\\nBACKGROUND:\\nPeople who are blind cannot see images on a screen. In order to give people who cannot see an image access to the information conveyed by the image, it must have a text alternative. The text alternative must describe the information or function represented by the image. Screen readers can then use the alternative text to convey that information to the screen reader user."
    }
]