[
    {
        "ID": "111d",
        "AssureCkpointID":"1.1.1.d Alternative Text (Decorative Images)",
        "SC": "1.1.1.d - Decorative Images",
        "Details": "111d Decorative Images"
    },
    {
        "IssueDescription": "Decorative image has an accessibilityLabel",
        "AssureDescID": "Decorative image must have empty alt",
        "RecShort": "Remove label and disable Accessibility",
        "HowToFix": "RULE:\\nImages that do not convey content, are decorative, or with content that is already conveyed in the text MUST NOT be given an alternative text equivalent that is exposed to assistive technology.\\n\\nHOW TO FIX:\\nFix this issue by ensuring that isAccessibilityElement=”false” is provided either in Swift code or by unchecking the Accessibility Enabled checkbox in the Accessibility Properties Panel.\\n\\nREFERENCE:\\nDeque University: https://dequeuniversity.com/class/ios2/images/alternative-text#complex-text-alt-ios\\n\\nBACKGROUND:\\nDecorative images do not add information to the content of a screen. Examples of decorative images include an image whose content is provided by adjacent text, or an image that is used just for visual effect such as a hero image, a background image, a stock photo, or a decorative flourish. Decorative images should be coded in such a way that screen readers can ignore them."
    }
]