[
    {
        "ID": "312a",
        "AssureCkpointID":"3.1.2.a Language of Parts",
        "SC": "3.1.2.a - Change in language of parts",
        "Details": "312a Change in language of parts"
    },
    {
        "IssueDescription": "Change in language is not marked",
        "AssureDescID": "Change in language is not marked",
        "RecShort": "Use UIAccessibilitySpeechAttributeLanguage",
        "HowToFix": "RULE:\\nThe language of sections of content that are different from the app's default language MUST be identified in such a way that they can be discovered by assistive technology.\\n\\nHOW TO FIX:\\nFix this issue by identifying the change in language using the UIAccessibilitySpeechAttributeLanguage property.\\n\\nREFERENCE:\\nDeque University: https://dequeuniversity.com/class/ios2/text-content/language-settings\\n\\nBACKGROUND:\\nMost screen readers can read several different languages. When content is written in more than one language, a screen reader does not know to switch languages unless the markup tells it to. Content read with the wrong language pronunciation may be very difficult or impossible to understand. When the change in language of a particular portion of content is correctly identified, screen readers will know which language library to use."
    },
    {
        "IssueDescription": "Change in language is not correct",
        "AssureDescID": "Value of the LANG attribute is not valid",
        "RecShort": "Use correct UIAccessibilitySpeechAttributeLanguage value",
        "HowToFix": "RULE:\\nThe language of sections of content that are different from the app's default language MUST be identified in such a way that they can be discovered by assistive technology.\\n\\nHOW TO FIX:\\nFix this issue by correctly identifying the change in language using the UIAccessibilitySpeechAttributeLanguage property.\\n\\nREFERENCE:\\nDeque University: https://dequeuniversity.com/class/ios2/text-content/language-settings\\n\\nBACKGROUND:\\nMost screen readers can read several different languages. When content is written in more than one language, a screen reader does not know to switch languages unless the markup tells it to. Content read with the wrong language pronunciation may be very difficult or impossible to understand. When the change in language of a particular portion of content is correctly identified, screen readers will know which language library to use."
    }
]