[
    {
        "ID": "323a",
        "AssureCkpointID":"3.2.3.a Consistent Navigation Patterns",
        "SC": "3.2.3.a - Consistent navigation patters",
        "Details": "323a Consistent navigation patters"
    },
    {
        "IssueDescription": "Navigation pattern is not consistent throughout app",
        "AssureDescID": "Navigation element order is inconsistent",
        "RecShort": "Ensure nav patterns are consistent throughout app",
        "HowToFix": "RULE:\\nNavigation patterns that are repeated across screens MUST be presented in the same relative order each time they appear and MUST NOT change order when navigating through the app.\\n\\nHOW TO FIX:\\nFix this issue by ensuring that navigation patterns that are repeated across screens throughout the app are presented in the same relative order each time they appear.\\n\\nREFERENCE:\\nDeque University: https://dequeuniversity.com/class/semantic-structure2/between-pages/consistency\\n\\nBACKGROUND:\\nWhen navigation elements that are repeated across multiple screens - such as a navigation menu, search function, or table of contents - are not presented in the same relative order and location on each screen, some people may have a hard time locating that information or functionality. This especially impacts people who are blind, people with low vision, and people with cognitive disabilities. Ensuring that navigation components occur in the same order on each screen helps users predict where they can find things and more quickly use or skip repeated navigation content."
    }
]