[
    {
        "ID": "331b",
        "AssureCkpointID":"3.3.1.b Errors Identification",
        "SC": "3.3.1.b - Error identification",
        "Details": "331b Error identification"
    },
    {
        "IssueDescription": "Input error is not described in text",
        "AssureDescID": "Input error is not described in text",
        "RecShort": "Provide text error messages",
        "HowToFix": "RULE:\\nEfficient, intuitive, and clearly identified text based alerts MUST be provided to users for form validation cues and errors.\\n\\nHOW TO FIX:\\nFix this issue by providing an error message in text format that clearly describes the error and includes cues or instructions for resolving the error.\\n\\nREFERENCE:\\nhttps://dequeuniversity.com/class/ios2/forms/validation-feedback\\n\\nBACKGROUND:\\nWhen form fields that have an error are not clearly identified with a text-based error message people who are blind or have low vision may not be able to understand that an error has occurred and what went wrong. In order to provide feedback that can be accessed by all users, error messages must be provided in a text format. Error messages must indicate which input is in error - either by the text of the error message or programmatically - and the nature of the error. This will allow people to recover from mistakes while filling out a form."
    },
    {
        "IssueDescription": "Error message is not voice over accessible",
        "AssureDescID": "Error message is not screen reader accessible",
        "RecShort": "Ensure error message is voice over accessible",
        "HowToFix": "RULE:\\nVoiceOver users MUST be made aware of error messages so that they are aware that an error has occurred and can determine what is wrong.\\n\\nHOW TO FIX:\\nCommon methods to fix this issue include:\\n1. An Alert (UIAlertController) that indicates there are errors and lists the fields that must be corrected. Focus management tip: When the alert is closed, move focus to the first field with an error.\\n2. A top-of-screen message that indicates there are errors and lists the fields that must be corrected. Focus management tip: Display the form with the top-of-screen error message and use the UIAccessibilityPostNotification function to send a UIAccessibilityLayoutChangedNotification and move VoiceOver focus to the error message. (This method should not be used when an error is on a screen other than the current one.)\\n3. To cause VoiceOver to speak error messages in situations when VoiceOver focus should not be moved from the current location or task, use the UIAccessibilityPostNotification function to send a UIAccessibilityAnnouncementNotification. This technique may be used in situations such as:\\na) A warning from a character counter as the character limit is approaching\\nb) Feedback on meeting password requirements while creating a new password\\nc) Error messages that are displayed as a user advances through a screen but before submission\\n\\nREFERENCE:\\nhttps://dequeuniversity.com/class/ios2/forms/validation-feedback\\n\\nBACKGROUND:\\nWhen form fields that have an error are not clearly identified with a text-based error message people who are blind or have low vision may not be able to understand that an error has occurred and what went wrong. In order to provide feedback that can be accessed by all users, error messages must be provided in a text format. Error messages must indicate which input is in error - either by the text of the error message or programmatically - and the nature of the error. This will allow people to recover from mistakes while filling out a form."
    }
]