[
    {
        "ID": "332b",
        "AssureCkpointID":"3.3.2.b Missing Instructions",
        "SC": "3.3.2.b - Missing Instruction",
        "Details": "332b Missing Instruction"
    },
    {
        "IssueDescription": "Missing instructions",
        "AssureDescID": "Missing labels or instructions",
        "RecShort": "Provide accessible instructions",
        "HowToFix": "RULE:\\nInstructions for an element MUST be available as programmatically-discernible text.\\nInstructions for an element MUST be visible.\\n\\nHOW TO FIX:\\nCommon solutions to fix this issue include:\\n1. Provide essential instructions as text that is part of the UI control label\\n2. Provide essential instructions as text at the top of the form\\n3. Provide essential instructions as text before the intended text field\\n4. Provide essential instructions when the field gains focus via an accessible tooltip\\n5. Provide essential instructions as part of an accessible error message after the input is validated\\n\\nREFERENCE:\\nDeque University: https://dequeuniversity.com/class/ios2/forms/labels\\n\\nBACKGROUND:\\nFilling out forms correctly can be one of the more time consuming and frustrating digital user experiences, and it can be even more challenging for people with disabilities. The single easiest way to prevent user errors is by providing clear labels and instructions that are available to everyone at all times. Labels and instructions should: 1) be clear and informative, 2) disclose any constraints such as required data formats or ranges, and 3) identify required fields. Well-designed labels and instructions provide enough information so people can fill out forms without undue confusion or errors."
    },
    {
        "IssueDescription": "Inaccurate or incomplete instructions",
        "AssureDescID": "Inaccurate or incomplete labels or instructions",
        "RecShort": "Provide accessible instructions",
        "HowToFix": "RULE:\\nInstructions for an element MUST be available as programmatically-discernible text.\\nInstructions for an element MUST be visible.\\n\\nHOW TO FIX:\\nWhen form controls require user input, essential labels or instructions must be provided in text. When essential instructions are provided for people without disabilities, they must also be provided in an accessible way for people with disabilities.\\n\\nCommon solutions to fix this issue include:\\n1. Provide essential instructions as text that is part of the UI control label\\n2. Provide essential instructions as text at the top of the form\\n3. Provide essential instructions as text before the intended text field\\n4. Provide essential instructions when the field gains focus via an accessible tooltip\\n5. Provide essential instructions as part of an accessible error message after the input is validated\\n\\nREFERENCE:\\nDeque University: https://dequeuniversity.com/class/ios2/forms/labels\\n\\nBACKGROUND:\\nFilling out forms correctly can be one of the more time consuming and frustrating digital user experiences, and it can be even more challenging for people with disabilities. The single easiest way to prevent user errors is by providing clear labels and instructions that are available to everyone at all times. Labels and instructions should:\\n1) be clear and informative\\n2) disclose any constraints such as required data formats or ranges\\n3) identify required fields. Well-designed labels and instructions provide enough information so people can fill out forms without undue confusion or errors."
    }
]