[
    {
        "ID": "333a",
        "AssureCkpointID":"3.3.3.a Error Suggestion",
        "SC": "3.3.3.a - Error Suggestion",
        "Details": "333a Error Suggestion"
    },
    {
        "IssueDescription": "Error message does not convey required format",
        "AssureDescID": "Error message does not convey required format",
        "RecShort": "Include data format in error message",
        "HowToFix": "RULE:\\nError feedback MUST be meaningful.\\n\\nHOW TO FIX:\\nFix this issue by providing the required data format in the error message so that users are able to understand and correct it. For example: “Enter expiration date in format MM/YYYY”\\n\\nREFERENCE:\\nDeque Univeristy: https://dequeuniversity.com/class/forms2/form-validation/error-identification\\n\\nBACKGROUND:\\nEven when people are aware that an error in a form has occurred, they may not know how to correct it. Whenever it is possible, error messages should provide appropriate suggestions for correction of an input error such as: an example format for a date or account number; information on characters that may not be used in a field; or notification that data is not within the expected range. This will allow people to recover from mistakes more easily while filling out a form."
    },
    {
        "IssueDescription": "Error message does not convey required values",
        "AssureDescID": "Error message does not convey required values",
        "RecShort": "Include range of data values in error message",
        "HowToFix": "RULE:\\nError feedback MUST be meaningful.\\n\\nHOW TO FIX:\\nFix this issue by clearly identifying the data range that is allowed for the form control in the error message.\\n\\nREFERENCE:\\nDeque Univeristy: https://dequeuniversity.com/class/forms2/form-validation/error-identification\\n\\nBACKGROUND:\\nEven when people are aware that an error in a form has occurred, they may not know how to correct it. Whenever it is possible, error messages should provide appropriate suggestions for correction of an input error such as: an example format for a date or account number; information on characters that may not be used in a field; or notification that data is not within the expected range. This will allow people to recover from mistakes more easily while filling out a form."
    },
    {
        "IssueDescription": "Error message does not suggest fix",
        "AssureDescID": "Error message does not suggest fix",
        "RecShort": "Include detailed suggestion in error message",
        "HowToFix": "RULE:\\nError feedback MUST be meaningful.\\n\\nHOW TO FIX:\\nFix this issue by clearly identifying the reason for the error, for example: An expiration date entry fails validation. Instead of a generic message like \"Expiration date is not valid\", provide specific feedback as to what went wrong:\\n1. If the entered date failed because the format was not valid, the message could say \"Enter expiration date in mm/yyyy format\"\\n2. If the entered date failed because the timeframe was not valid, the message could say \"Expiration date must not be in the past\"\\n3. If the entered date failed because invalid characters were entered, the message could say \"Expiration date must only contain numbers\"\\n\\nREFERENCE:\\nDeque Univeristy: https://dequeuniversity.com/class/forms2/form-validation/error-identification\\n\\nBACKGROUND:\\nEven when people are aware that an error in a form has occurred, they may not know how to correct it. Whenever it is possible, error messages should provide appropriate suggestions for correction of an input error such as: an example format for a date or account number; information on characters that may not be used in a field; or notification that data is not within the expected range. This will allow people to recover from mistakes more easily while filling out a form."
    }
]