[
    {
        "ID": "111e",
        "AssureCkpointID":"4",
        "SC": "1.1.1.e - CSS images",
        "Details": "111e CSS images"
    },
    {
        "Scenario": "CSS image missing alternative text",
        "DescriptionID": "Informative CSS image is missing alt text",
        "RecShort": "All techniques",
        "NativeRecShort": "NA",
        "Recommendation": "It is not possible to add an alt attribute directly to CSS or other background images. Images that convey content should not generally be placed in page or element backgrounds. Sometimes image sprites or other background images are used to present informative content. While these should generally be avoided, if they are used, any content conveyed through the background image must be made accessible within the page markup.\\n\\nFix the issue using any of the following techniques:\\n1. Use an aria-label or aria-labelledby attribute to provide a text alternative in conjunction with role=\"img\".\\n2. Use CSS clipped text to provide screen reader accessible (non-visible) alternative text.",
        "IOSRec": "NA",
        "AndroidRec": "NA"
    },
    {
        "Scenario": "CSS image missing alternative text",
        "DescriptionID": "Informative CSS image is missing alt text",
        "RecShort": "Use aria-label attribute",
        "NativeRecShort": "NA",
        "Recommendation": "It is not possible to add alternative text directly to CSS or other background images. Images that convey content should not generally be placed in page or element backgrounds.Sometimes image sprites or other background images are used to present content. While these should generally be avoided, if they are used, any content conveyed through the background image must be made accessible within the page markup.\\n\\nFix the issue using the following technique:\\nUse an aria-label or aria-labelledby attribute to provide a text alternative in conjunction with role=\"img\".",
        "IOSRec": "NA",
        "AndroidRec": "NA"
    },
    {
        "Scenario": "CSS image missing alternative text",
        "DescriptionID": "Informative CSS image is missing alt text",
        "RecShort": "Use CSS clipped text",
        "NativeRecShort": "NA",
        "Recommendation": "It is not possible to add alternative text directly to CSS or other background images. Images that convey content should not generally be placed in page or element backgrounds.Sometimes image sprites or other background images are used to present content. While these should generally be avoided, if they are used, any content conveyed through the background image must be made accessible within the page markup.\\n\\nFix the issue using the following technique:\\nUse CSS clipped text to provide screen reader accessible (non-visible) alternative text",
        "IOSRec": "NA",
        "AndroidRec": "NA"
    },
    {
        "Scenario": "Alternative text has typo errors",
        "DescriptionID": "NA",
        "RecShort": "Avoid typo and spelling errors in text alternative",
        "NativeRecShort": "NA",
        "Recommendation": "Provide a meaningful and complete text alternative for the image present in the webpage. This helps screen reader users to identify the purpose of the image that a sighted user is able to understand.\\n\\nFix this issue by ensuring that the provided text alternative is free of typo or spelling errors.",
        "IOSRec": "NA",
        "AndroidRec": "NA"
    }
]