[
    {
        "ID": "111f",
        "AssureCkpointID":"5",
        "SC": "1.1.1.f - Input type images",
        "Details": "111f Input type images"
    },
    {
        "Scenario": "Input type image missing text alternative",
        "DescriptionID": "Alt text is missing",
        "RecShort": "All techniques",
        "NativeRecShort": "NA",
        "Recommendation": "Input type image buttons must have an alt attribute that describes the function of the input. The alternative text should describe what the button will do when selected, such as \"Search\", \"Submit\", \"Register\", \"Place your order\", etc.\\n\\nTo fix the issue, add text within an alt attribute on the <input> element that conveys the purpose of the input button.",
        "IOSRec": "NA",
        "AndroidRec": "NA"
    },
    {
        "Scenario": "Alternative text is not meaningful",
        "DescriptionID": "Alt text is not appropriate",
        "RecShort": "Provide meaningful alternative text",
        "NativeRecShort": "NA",
        "Recommendation": "Provide a meaningful text alternative for the input image. Alt text for an input of type image should clearly describe the destination, purpose, function, or action.",
        "IOSRec": "NA",
        "AndroidRec": "NA"
    },
    {
        "Scenario": "Alt text does not serve same purpose as image",
        "DescriptionID": "Alt text does not serve same purpose as image",
        "RecShort": "Provide meaningful alternative text",
        "NativeRecShort": "NA",
        "Recommendation": "Provide a meaningful text alternative for the input image. Alt text for an input of type image should clearly describe the destination, purpose, function, or action.",
        "IOSRec": "NA",
        "AndroidRec": "NA"
    }
]