[
    {
        "ID": "121b",
        "AssureCkpointID":"9",
        "SC": "1.2.1.b - Text or aduio description - prerecorded video only - no dialogues",
        "Details": "121b Text or aduio description - prerecorded video only - no dialogues"
    },
    {
        "Scenario": "No text or audio description is provided",
        "DescriptionID": "No text or audio description available",
        "RecShort": "Provide text or audio description",
        "NativeRecShort": "Provide text or audio description",
        "Recommendation": "Pre-recorded video-only files that contain no sound must come with an adjacent or easily reachable text or audio description of what happens on the visual track.\\n\\nFix the issue using any of the following techniques:\\n1. Audio Description: A synchronized soundtrack with an audio description conveys the essential information of any important visual content.\\n2. Text Description: A full text description is provided to convey important scene changes, character expressions, and any essential visual information.",
        "IOSRec": "Pre-recorded video-only files that contain no sound must come with an adjacent or easily reachable text or audio description of what happens on the visual track.\\n\\nFix the issue using any of the following techniques:\\n1. Audio Description: A synchronized soundtrack with an audio description conveys the essential information of any important visual content.\\n2. Text Description: A full text description is provided to convey important scene changes, character expressions, and any essential visual information.",
        "AndroidRec": "NA"
    },
    {
        "Scenario": "Text or audio description is hard to find",
        "DescriptionID": "Text/audio description is hard to find",
        "RecShort": "Text transcript or audio description must be in close proximity with video file",
        "NativeRecShort": "Text transcript or audio description must be in close proximity with video file",
        "Recommendation": "Audio description or text transcripts are an important alternative for video-only content for blind users to understand the content in the video. Providing the text transcript or audio description in close proximity to the audio or video content helps users to identify and relate it with the video element.\\nAdditionally taking care about naming the text transcript or audio description in relation with the video content will also help screen reader users as well as other users.",
        "IOSRec": "Audio description or text transcripts are an important alternative for video-only content for blind users to understand the content in the video. Providing the text transcript or audio description in close proximity to the audio / video content helps users to identify and relate it with the video element. Additionally taking care about naming the text transcript / audio description in relation with the video content will also help screen reader users as well as other users.",
        "AndroidRec": "NA"
    },
    {
        "Scenario": "Text or audio description does not adequately describe the video",
        "DescriptionID": "Text/audio description is inadequate",
        "RecShort": "Provide a complete description of the video content",
        "NativeRecShort": "Provide a complete description of the video content",
        "Recommendation": "Pre-recorded video-only files that contain no sound must come with an adjacent or easily reachable text or audio description of what happens on the visual track.\\nIf the provided text or audio description is incomplete or inaccurate then the screen reader user ends up with incomplete knowledge about the video. Issue can be fixed by ensuring to take additional care in providing complete and accurate transcript or audio description for the provided video.",
        "IOSRec": "Pre-recorded video-only files that contain no sound must come with an adjacent or easily reachable text or audio description of what happens on the visual track.\\nIf the provided text or audio description is incomplete or inaccurate then the screen reader user ends up with incomplete knowledge about the video. Issue can be fixed by ensuring to take additional care in providing complete and accurate transcript or audio description for the provided video.",
        "AndroidRec": "NA"
    }
]