[
    {
        "ID": "123a",
        "AssureCkpointID":"11",
        "SC": "1.2.3.a - Text or Audio Description (Prerecorded Video – with Dialogue)",
        "Details": "123a Text or Audio Description (Prerecorded Video – with Dialogue)"
    },
    {
        "Scenario": "No text or audio description is provided",
        "DescriptionID": "No text or audio description available",
        "RecShort": "Provide a text transcript or audio description",
        "NativeRecShort": "Provide a text transcript or audio description",
        "Recommendation": "Audio descriptions and text descriptions (transcripts) provide an alternative way to access information that is only conveyed through the visual track of a video. Significant information conveyed only on the visual track of a video can easily be missed by people who are blind, have low vision or simply, have difficulty watching synchronized media content, including people who have difficulty perceiving or understanding moving images.\\n\\nFix the issue using any of the following techniques:\\n1. Audio Description: A synchronized soundtrack with an audio description conveys the essential information of any important visual content.\\n2. Text Description: A full text description (transcript) conveys important scene changes, character expressions, and any essential visual information.",
        "IOSRec": "Audio descriptions and text descriptions (transcripts) provide an alternative way to access information that is only conveyed through the visual track of a video. Significant information conveyed only on the visual track of a video can easily be missed by people who are blind, have low vision or simply, have difficulty watching synchronized media content, including people who have difficulty perceiving or understanding moving images.\\n\\nFix the issue using any of the following techniques:\\n1. Audio Description: A synchronized soundtrack with an audio description conveys the essential information of any important visual content.\\n2. Text Description: A full text description (transcript) conveys important scene changes, character expressions, and any essential visual information.",
        "AndroidRec": "NA"
    },
    {
        "Scenario": "Audio description is incorrect or inadequate",
        "DescriptionID": "Audio description is incorrect or inadequate",
        "RecShort": "Audio description must be accurate",
        "NativeRecShort": "Audio description must be accurate",
        "Recommendation": "Audio descriptions provide an alternative way to access information that is only conveyed through the visual track of a video. Significant information conveyed only on the visual track of a video can easily be missed by people who are blind, have low vision or simply, have difficulty watching synchronized media content, including people who have difficulty perceiving or understanding moving images.\\nIf the provided audio description is incomplete or inaccurate then the screen reader user ends up with incomplete knowledge about the video.\\nIssue can be fixed by ensuring to take additional care in providing a complete and accurate audio description for the video.",
        "IOSRec": "Audio descriptions provide an alternative way to access information that is only conveyed through the visual track of a video. Significant information conveyed only on the visual track of a video can easily be missed by people who are blind, have low vision or simply, have difficulty watching synchronized media content, including people who have difficulty perceiving or understanding moving images.\\nIf the provided audio description is incomplete or inaccurate then the screen reader user ends up with incomplete knowledge about the video.\\nIssue can be fixed by ensuring to take additional care in providing a complete and accurate audio description for the video.",
        "AndroidRec": "NA"
    },
    {
        "Scenario": "Text description is incorrect or inadequate",
        "DescriptionID": "Text description is incorrect or inadequate",
        "RecShort": "Text description must be accurate",
        "NativeRecShort": "Text description must be accurate",
        "Recommendation": "Text descriptions (transcripts) provide an alternative way to access information that is only conveyed through the visual track of a video. Significant information conveyed only on the visual track of a video can easily be missed by people who are blind, have low vision or simply, have difficulty watching synchronized media content, including people who have difficulty perceiving or understanding moving images.\\n\\nIf the provided text description is incomplete or inaccurate then the screen reader user ends up with incomplete knowledge about the video.\\nIssue can be fixed by ensuring to take additional care in providing a complete and accurate text description for the video.",
        "IOSRec": "Text descriptions (transcripts) provide an alternative way to access information that is only conveyed through the visual track of a video. Significant information conveyed only on the visual track of a video can easily be missed by people who are blind, have low vision or simply, have difficulty watching synchronized media content, including people who have difficulty perceiving or understanding moving images.If the provided text description is incomplete or inaccurate then the screen reader user ends up with incomplete knowledge about the video.Issue can be fixed by ensuring to take additional care in providing a complete and accurate text description for the video.",
        "AndroidRec": "NA"
    }
]