[
    {
        "ID": "131a",
        "AssureCkpointID":"14",
        "SC": "1.3.1.a - Semantics",
        "Details": "131a Semantics"
    },
    {
        "Scenario": "Form error and field relationship not identified",
        "DescriptionID": "Form error and field relationship not identified",
        "RecShort": "Specify the form field name in error message or associate the error message",
        "NativeRecShort": "NA",
        "Recommendation": "Submiting a form may result in errors on form inputs. Users must be able to associate fields in error and their error message in order to correct mistakes.\\n\\nFix this issue by clearly identifying the fields in error by one or both of the methods below:\\n1. Providing the field name in an error state as part of the error message.\\n2. Associating the error message with the field using aria-describedby.",
        "IOSRec": "NA",
        "AndroidRec": "NA"
    },
    {
        "Scenario": "Quotation is missing semantics",
        "DescriptionID": "Quotation is missing semantics",
        "RecShort": "Use <blockquote> element",
        "NativeRecShort": "NA",
        "Recommendation": "The <blockquote> element should be used to designate long (block level) quotations.\\nMost desktop screen readers announce the blockquote element, so you can safely use it with the expectation that blind users will know that the content inside a blockquote is a quotation.\\n\\nFix the issue by using <blockquote> tag in native HTML.",
        "IOSRec": "NA",
        "AndroidRec": "NA"
    },
    {
        "Scenario": "Semantic html is used for visual effect",
        "DescriptionID": "Semantic html is used for visual effect",
        "RecShort": "Remove incorrect semantic markup",
        "NativeRecShort": "NA",
        "Recommendation": "Semantic markup provides visual styling for some elements. It may be tempting to use semantic element for pure visual styling, but that will convey the wrong information to screen reader users. Great care needs to be taken not to use semantics just to provide visual effects.\\n\\nFix the issue by removing incorrect semantic markup which is used for visual styling and incorrectly attributes semantic meaning to the content.",
        "IOSRec": "NA",
        "AndroidRec": "NA"
    },
    {
        "Scenario": "Role=\"presentation\" is used incorrectly",
        "DescriptionID": "Role=\"presentation\" is used incorrectly",
        "RecShort": "Remove role of presentation",
        "NativeRecShort": "NA",
        "Recommendation": "Marking a section as role=\"presentation\" essentially cancels the native role of the element and turns it into the equivalent of a <span> or <div>, which are neutral, un-semantic tags that convey no role. Adding role=\"presentation\" does NOT hide the element from anyone. Sighted users will still see it, and blind users will still hear the text, but their screen readers won't announce any kind of semantic role for the text. (An exception is adding role=\"presentation\" to an image will hide it from screen readers.) Use great caution when using role=\"presentation\" to hide an element's semantics.\\n\\nFix the issue by removing role=\"presentation\" from the element.",
        "IOSRec": "NA",
        "AndroidRec": "NA"
    }
]