[
    {
        "ID": "131b",
        "AssureCkpointID":"15",
        "SC": "1.3.1.b - Data Table",
        "Details": "131b Data Table"
    },
    {
        "Scenario": "Data table is missing header cell markup",
        "DescriptionID": "Data table is missing header cell markup",
        "RecShort": "Use <th> markup on table headers",
        "NativeRecShort": "NA",
        "Recommendation": "Screen readers know that a table cell is a header is by marking it with <th>. Otherwise screen readers may assume the table is just for visual formatting and will not read the header information as they should.\\n\\nTo fix this issue, mark all table header cells with <th>.",
        "IOSRec": "NA",
        "AndroidRec": "NA"
    },
    {
        "Scenario": "Complex table TD is missing HEADERS",
        "DescriptionID": "Complex table TD is missing HEADERS",
        "RecShort": "Use headers/id method",
        "NativeRecShort": "NA",
        "Recommendation": "Tables with a complex structure — in which data cells are merged or there are more than two levels of headers for any given dimension — require a different technique than simply marking the header cells with a scope of col, row, colgroup, or rowgroup.\\n\\nFix this issue by explicitly associating each data cell must be with each corresponding header cell using headers and id.\\nAdditionally ensure to meet the following criteria as well:\\n1. For data tables, check that any cell that is associated with more than one row and/or one column header contains a headers attribute that lists the id for all headers associated with that cell.\\n2. For data tables where any cell contains an id or headers attribute,\\na. Check that each id listed in the headers attribute of the data cell matches the id attribute of a cell that is used as a header element\\nb. Check that the headers attribute of a data cell contains the id attribute of all headers associated with the data cell\\nc. Check that all ids are unique (that is, no two elements in the page have the same id)",
        "IOSRec": "NA",
        "AndroidRec": "NA"
    },
    {
        "Scenario": "Two data tables present when visually it is one data table",
        "DescriptionID": "NA",
        "RecShort": "Code table as one single table",
        "NativeRecShort": "NA",
        "Recommendation": "When a single data table is broken down into multiple tables that look like one table, the programmatic relationship between data cells and their corresponding header cells is broken, and screen reader keyboard navigation is broken.\\n\\nFix this issue by recoding the table as one table marked with proper header and data cell relationships.",
        "IOSRec": "NA",
        "AndroidRec": "NA"
    },
    {
        "Scenario": "SCOPE attribute is incorrect",
        "DescriptionID": "SCOPE attribute is incorrect",
        "RecShort": "Use correct scope value",
        "NativeRecShort": "NA",
        "Recommendation": "The scope attribute makes an explicit association between the table header cell and its corresponding data cells. If the incorrect scope value is used, for example it uses scope=\"row\" on column headers, then screen readers will read the table incorrectly.\\n\\nTo fix this issue, use the correct scope value (row, col, rowgroup, or colgroup) on each <th>.",
        "IOSRec": "NA",
        "AndroidRec": "NA"
    },
    {
        "Scenario": "First row of the data table is a caption.",
        "DescriptionID": "First row of data table is really a caption",
        "RecShort": "Use <caption> element",
        "NativeRecShort": "NA",
        "Recommendation": "The table has no caption, instead it has a row spanning all columns with table caption text. Screen readers will not treat this spanned cell as the name of the table, so it will not show up properly in lists of tables. Screen reader users will not be able to accurately convey the structure of the table due to the spanned cell.\\n\\nFix the issue by removing the spanned row and using <caption> element before the table to display the caption.",
        "IOSRec": "NA",
        "AndroidRec": "NA"
    },
    {
        "Scenario": "Layout tables are used with table headers.",
        "DescriptionID": "Layout table contains TH",
        "RecShort": "Replace <th> with <td>",
        "NativeRecShort": "NA",
        "Recommendation": "If a table is used strictly for visual layout purposes, don't include any of the header markup for data tables. If you do, screen readers will inform users that a table is present. Users will expect the table to represent tabular data, which won't be accurate in layout tables. Layout tables should not use the <th> attribute.\\n\\nFix the issue by replacing <th> tags with <td> tags in tables that are used for layout purposes.",
        "IOSRec": "NA",
        "AndroidRec": "NA"
    },
    {
        "Scenario": "HEADERS-ID association is incorrect",
        "DescriptionID": "HEADERS-ID association is incorrect",
        "RecShort": "Fix headers/id association",
        "NativeRecShort": "NA",
        "Recommendation": "Complex table structures with irregular column or row designations are difficult for screen reader users to understand and navigate. Incorrect header - id association adds an additional layer of complexity as the purpose of each header is communicated wrongly to screen reader user.\\n\\nFix the issue by providing accurate and correct header and id association so that screen reader users would be able to understand the content present in the complex table accurately.",
        "IOSRec": "NA",
        "AndroidRec": "NA"
    },
    {
        "Scenario": "Complex table TH is missing ID",
        "DescriptionID": "Complex table TH is missing ID",
        "RecShort": "Fix headers/id association",
        "NativeRecShort": "NA",
        "Recommendation": "Tables with a complex structure — in which data cells are merged or there are more than two levels of headers for any given dimension — require a different technique than simply marking the header cells with a scope of col, row, colgroup, or rowgroup. Each data cell must be explicitly associated with each corresponding header cell using headers and id. Even if one of the header cells miss id markup, the intent of the header cell will not be achieved.\\n\\nFix this issue by take additional care in providing unique ids to all header cells present in the complex table.",
        "IOSRec": "NA",
        "AndroidRec": "NA"
    },
    {
        "Scenario": "Data & header cell relationship is missing",
        "DescriptionID": "Data & header cell relationship is missing",
        "RecShort": "Use correct table header markup",
        "NativeRecShort": "NA",
        "Recommendation": "Screen reader users can navigate tables almost like spreadsheets, going from one cell to the other in any direction. If the markup is correct on the table, the screen reader will read the table header out loud in addition to the data in the table cell, allowing blind users to understand where they are in the context of the table.\\n\\nThe type of markup required to show the relationship between header and data cells depends on the complexity of the table. The following techniques may be used:\\n1. Simple, one-dimensional table: A simple table that has only row OR column headers should mark header cells as <th>.\\n2. Simple, two-dimenstional table: A simple table that has row AND column headers should mark header cells as <th> and apply scope=\"col\" to column headers and scope=\"row\" to row headers.\\n3. Grouped header table: A table that has grouped (merged) header cells should mrak header cells as <th> and apply scope=\"col\", scope=\"row\", scope=\"colgroup\", and scope=\"rowgroup\" as appropriate.\\n4. Complex table: A tables with a complex structure — in which data cells are merged or there are more than two levels of headers for any given dimension — should be mark header cells as <th> and explicitly associate with each data cell with its corresponding header cell using headers and id.",
        "IOSRec": "NA",
        "AndroidRec": "NA"
    },
    {
        "Scenario": "Data & header cell relationship is missing",
        "DescriptionID": "Data & header cell relationship is missing",
        "RecShort": "Use header markup for simple, one dimensional table",
        "NativeRecShort": "NA",
        "Recommendation": "Screen reader users can navigate tables almost like spreadsheets, going from one cell to the other in any direction. If the markup is correct on the table, the screen reader will read the table header out loud in addition to the data in the table cell, allowing blind users to understand where they are in the context of the table.\\nFix this issue using the following technique:\\nSimple, one-dimensional table: A simple table that has only row OR column headers should mark header cells as <th>.",
        "IOSRec": "NA",
        "AndroidRec": "NA"
    },
    {
        "Scenario": "Data & header cell relationship is missing",
        "DescriptionID": "Data & header cell relationship is missing",
        "RecShort": "Use header markup for simple, two dimensional table",
        "NativeRecShort": "NA",
        "Recommendation": "Screen reader users can navigate tables almost like spreadsheets, going from one cell to the other in any direction. If the markup is correct on the table, the screen reader will read the table header out loud in addition to the data in the table cell, allowing blind users to understand where they are in the context of the table.\\n\\nFix this issue using the following technique:\\nSimple, two-dimenstional table: A simple table that has row AND column headers should mark header cells as <th> and apply scope=\"col\" to column headers and scope=\"row\" to row headers.",
        "IOSRec": "NA",
        "AndroidRec": "NA"
    },
    {
        "Scenario": "Data & header cell relationship is missing",
        "DescriptionID": "Data & header cell relationship is missing",
        "RecShort": "Use header markup for grouped header table",
        "NativeRecShort": "NA",
        "Recommendation": "Screen reader users can navigate tables almost like spreadsheets, going from one cell to the other in any direction. If the markup is correct on the table, the screen reader will read the table header out loud in addition to the data in the table cell, allowing blind users to understand where they are in the context of the table.\\n\\nFix this issue using the following technique:\\nGrouped header table: A table that has grouped (merged) header cells should mrak header cells as <th> and apply scope=\"col\", scope=\"row\", scope=\"colgroup\", and scope=\"rowgroup\" as appropriate.",
        "IOSRec": "NA",
        "AndroidRec": "NA"
    },
    {
        "Scenario": "Data & header cell relationship is missing",
        "DescriptionID": "Data & header cell relationship is missing",
        "RecShort": "Use header markup for complex table",
        "NativeRecShort": "NA",
        "Recommendation": "Screen reader users can navigate tables almost like spreadsheets, going from one cell to the other in any direction. If the markup is correct on the table, the screen reader will read the table header out loud in addition to the data in the table cell, allowing blind users to understand where they are in the context of the table.\\n\\nFix this issue using the following technique:\\nComplex table: A tables with a complex structure — in which data cells are merged or there are more than two levels of headers for any given dimension — should be mark header cells as <th> and explicitly associate with each data cell with its corresponding header cell using headers and id.",
        "IOSRec": "NA",
        "AndroidRec": "NA"
    },
    {
        "Scenario": "Layout table has CAPTION or SUMMARY",
        "DescriptionID": "Layout table has CAPTION or SUMMARY",
        "RecShort": "Remove caption or summary",
        "NativeRecShort": "NA",
        "Recommendation": "If a table is used strictly for visual layout purposes, don't include semantic markup for data tables. If you do, screen readers will inform users that a table is present. Users will expect the table to represent tabular data, which won't be accurate in layout tables. Layout tables should not use the <caption> element or summary attribute.\\n\\nFix the issue by removing the <caption> element or summary attribute in tables that are used for layout purposes.",
        "IOSRec": "NA",
        "AndroidRec": "NA"
    },
    {
        "Scenario": "SCOPE attribute is invalid",
        "DescriptionID": "SCOPE attribute is invalid",
        "RecShort": "Use correct scope value",
        "NativeRecShort": "NA",
        "Recommendation": "The scope attribute makes an explicit association between the table header cell and its corresponding data cells. When the scope attribute is incorrectly provided due to spelling errors or invalid values, association between the header and data cells will not be programmatically discernable.\\n\\nTo fix this issue, use the correct scope value (row, col, rowgroup, or colgroup) on each <th>.",
        "IOSRec": "NA",
        "AndroidRec": "NA"
    },
    {
        "Scenario": "SCOPE is used on TD",
        "DescriptionID": "SCOPE is used on TD",
        "RecShort": "Change <td> with scope to <th>",
        "NativeRecShort": "NA",
        "Recommendation": "Scope attribute use on TD cells is deprecated from HTML 5. Scope attribute can be used only on header cells to let screen reader users know which row or column acts as header cells to the table.\\n\\nFix the issue by changing each <td> with a scope attribute to a <th>.",
        "IOSRec": "NA",
        "AndroidRec": "NA"
    },
    {
        "Scenario": "Complex table is missing HEADERS-ID",
        "DescriptionID": "Complex table is missing HEADERS-ID",
        "RecShort": "Use headers/id method for complex table",
        "NativeRecShort": "NA",
        "Recommendation": "Tables with a complex structure — in which data cells are merged or there are more than two levels of headers for any given dimension — require a different technique than simply marking the header cells with a scope of col, row, colgroup, or rowgroup. Each data cell must be explicitly associated with each corresponding header cell using headers and id.\\n\\nFix this issue by using the headers and id method to explicitly associate with each data cell with its corresponding header cell.",
        "IOSRec": "NA",
        "AndroidRec": "NA"
    }
]