[
    {
        "ID": "131f",
        "AssureCkpointID":"19",
        "SC": "1.3.1.f - List",
        "Details": "131f List"
    },
    {
        "Scenario": "Content appear like a description list.",
        "DescriptionID": "Description list not marked up properly",
        "RecShort": "Use <dl>, <dt>, and <dd> markup",
        "NativeRecShort": "NA",
        "Recommendation": "Definition/description lists are used to pair a term with its definition or a name with a value. Screen readers notify users when they come to a list and tell them how many items are in a list. This helps listeners know what they are listening to, and what to expect as they listen to it.\\n\\nFix the issue using the following technique:\\nUse the definition list (<dl>) element, to wrap one or more terms (<dt>) and associated description(s) (<dd>).",
        "IOSRec": "NA",
        "AndroidRec": "NA"
    },
    {
        "Scenario": "Content appear as list but not marked as",
        "DescriptionID": "Visual list is not marked up as list",
        "RecShort": "Use <ul>/<li> or <ol>/<li> markup",
        "NativeRecShort": "NA",
        "Recommendation": "Not marking up a list as a real list—for example, using table to create a fake list, or <br> element to create a fake list—causes screen readers inability to inform the listener that they are listening to a list, and cannot let them know how many items are in the list.\\n\\nFix the issue using any of the following techniques:\\n1. Unordered list: Wrap a series of list items (<li>) inside an unordered list element (<ul>). Unordered lists should be used when a set of items can be placed in any order.\\n2. Ordered list: Wrap a series of list items (<li>) inside an ordered list element (<ol>).. Ordered lists should be used when the list items need to be placed in a specific order.",
        "IOSRec": "NA",
        "AndroidRec": "NA"
    },
    {
        "Scenario": "Content is not a list but is marked as such",
        "DescriptionID": "NA",
        "RecShort": "Remove list mark up",
        "NativeRecShort": "NA",
        "Recommendation": "Inappropirately marking content as list misrepresents the relationship between content. Content that does not act and look like list must not be marked as list using ol or ul tags.\\n\\nFix the issue by removing the list mark up present for the content.",
        "IOSRec": "NA",
        "AndroidRec": "NA"
    },
    {
        "Scenario": "Nested list is not marked properly",
        "DescriptionID": "Nested list is not marked properly",
        "RecShort": "Nest list within listitem properly",
        "NativeRecShort": "NA",
        "Recommendation": "When nested lists are not marked appropriately the parent child relation is not communicated properly to screen reader users.\\n\\nFix the issue by nesting lists within list items properly.",
        "IOSRec": "NA",
        "AndroidRec": "NA"
    },
    {
        "Scenario": "List or list item is not marked up properly",
        "DescriptionID": "List or list item is not marked up properly",
        "RecShort": "Provide appropriate and correct list markup for the list item.",
        "NativeRecShort": "NA",
        "Recommendation": "Incorrect list markup for a list causes screen readers to misinterpret list markup to screen reader users.\\n\\nFix the issue by correctly applying <ul>/<li> or <ol>/<li> markup.",
        "IOSRec": "NA",
        "AndroidRec": "NA"
    }
]