[
    {
        "ID": "133b",
        "AssureCkpointID":"23",
        "SC": "1.3.3.b Sound Cues",
        "Details": "133b Sound Cues"
    },
{
    "Scenario": "Information relies on ability to hear",
    "DescriptionID": "Information relies on ability to hear",
    "RecShort": "Ensure instructions do not rely on ability to hear",
    "NativeRecShort": "Ensure instructions do not rely on ability to hear",
    "Recommendation": "When instructions to use conent rely on person's ability to hear, people with hearing impairments are at risk of being unable to understand the instructions. Instructions need to be designed in a way, so that they never depend on a specific sensory characteristic. \\n\\nFix this issue by ensuring that information conveyed by sound is also available in text so that for hearing impaired users can still get the information or follow the instructions.",
    "IOSRec": "When instructions to use conent rely on person's ability to hear, people with hearing impairments are at risk of being unable to understand the instructions. Instructions need to be designed in a way, so that they never depend on a specific sensory characteristic.\\n\\nFix this issue by ensuring that information conveyed by sound is also available in text so that for hearing impaired users can still get the information or follow the instructions.",
    "AndroidRec": "NA"
}
]