[
    {
        "ID": "141a",
        "AssureCkpointID":"24",
        "SC": "1.4.1.a - Use of color",
        "Details": "141a Use of color"
    },
    {
        "Scenario": "Color is used to highlight errors",
        "DescriptionID": "Color alone is used to identify error(s)",
        "RecShort": "All techniques",
        "NativeRecShort": "Provide error messages in text",
        "Recommendation": "Error identification should not rely on color alone, such as only outlining the field in red or changing the field label to red, to communicate the error. Both users who are color blind and users who cannot see the page must be able to know that a field has an error. Providing the information in text will serve both groups of users. \\n\\nUse any of the following techniques to resolve this issue:\\n1. Provide a list of error messages that include the field name at the top of the page.\\n2. Provide inline form error messages that include the field name or are associated with the fields or both.",
        "IOSRec": "Error identification should not rely on color alone, such as only outlining the field in red or changing the field label to red, to communicate the error. Both users who are color blind and users who cannot see the page must be able to know that a field has an error. Providing the information in text will serve both groups of users.\\n\\nUse any of the following techniques to resolve this issue:\\n1. Provide a list of error messages that include the field name at the top of the page.\\n2. Provide inline form error messages that include the field name or are associated with the fields or both.",
        "AndroidRec": "NA"
    },
    {
        "Scenario": "Color is used to highlight errors",
        "DescriptionID": "Color alone is used to identify error(s)",
        "RecShort": "Provide list of errors",
        "Recommendation": "Error identification should not rely on color alone, such as only outlining the field in red or changing the field label to red, to communicate the error. Both users who are color blind and users who cannot see the page must be able to know that a field has an error. Providing the information in text will serve both groups of users. \\n\\nFix this issue by providing a list of error messages that include the field name at the top of the page.",
        "AndroidRec": "NA"
    },
    {
        "Scenario": "Color is used to highlight errors",
        "DescriptionID": "Color alone is used to identify error(s)",
        "RecShort": "Provide inline error messages",
        "Recommendation": "Error identification should not rely on color alone, such as only outlining the field in red or changing the field label to red, to communicate the error. People who are color blind, have low vision or are blind must be able to know that a field has an error. Providing error information in text will serve all of these user groups. \\n\\nFix this issue by providing inline form error messages that include the field name or are associated with the fields or both.",
        "AndroidRec": "NA"
    },
    {
        "Scenario": "Information is conveyed only with color alone",
        "DescriptionID": "Color alone is used to convey info",
        "RecShort": "Use text to convey color information",
        "NativeRecShort": "Use text to convey color information",
        "Recommendation": "When color is used as the only means to convey information, people who are colorblind, have low vision or are blind will be unable to take advantage of or make sense of the information. Text is the foundation upon which all other accessible content is built. Everything must exist in a text format. \\n\\nFix this issue by providing a visible and programmatically-discernible text alternative that accurately conveys the same information without color.",
        "IOSRec": "When color is used as the only means to convey information, people who are colorblind, have low vision or are blind will be unable to take advantage of or make sense of the information. Text is the foundation upon which all other accessible content is built. Everything must exist in a text format. \\n\\nFix this issue by providing a visible and programmatically-discernible text alternative that accurately conveys the same information without color.",
        "AndroidRec": "NA"
    }
]