[
    {
        "ID": "143a",
        "AssureCkpointID":"27",
        "SC": "1.4.3.a - Color contrast ratio for regular text",
        "Details": "143a Color contrast ratio for regular text"
    },
    {
        "Scenario": "Regular text, link text, or image of text lacks 4.5 to 1 contrast ratio",
        "DescriptionID": "Text content lacks 4.5 to 1 contrast ratio",
        "RecShort": "Adust text or background to increase contrast",
        "NativeRecShort": "Adust text or background to increase contrast",
        "Recommendation": "People who have low vision or are colorblind, could encounter some difficulty distinguishing text from its background if the contrast is insufficient. There are nearly three times more individuals with low vision than those with total blindness; and one out of twelve people has some sort of color deficiency. So, it is critical to consider adequate contrast between text and backgrounds.\\nRegular sized text must have a minimum contrast ratio of 4.5:1 against its background.\\n\\nFix this issue by adjusting the text and / or background to increase the contrast to at least 4.5 to 1.",
        "IOSRec": "People who have low vision or are colorblind, could encounter some difficulty reading text if the contrast is insufficient. Regular sized text must have a minimum contrast ratio of 4.5:1 against its background.\\n\\nFix this issue by adjusting the text and / or background to increase the contrast to at least 4.5 to 1.",
        "AndroidRec": "NA"
    },
    {
        "Scenario": "Link text lacks 4.5 to 1 contrast ratio on hover or focus",
        "DescriptionID": "Link text lacks 4.5 to 1 contrast ratio on hover or focus",
        "RecShort": "Adjust link focus/hover state color to increase contrast",
        "NativeRecShort": "NA",
        "Recommendation": "People who have low vision or are colorblind, could encounter some difficulty distinguishing text from its background if the contrast is insufficient. There are nearly three times more individuals with low vision than those with total blindness; and one out of twelve people has some sort of color deficiency. So, it is critical to consider adequate contrast between text and backgrounds.\\nRegular sized text must have a minimum contrast ratio of 4.5:1 against its background.\\n\\nFix the issue by providing 4.5:1 color contrast between the link text and background color when link receives keyboard focus or is hovered with a mouse.",
        "IOSRec": "NA",
        "AndroidRec": "NA"
    }
]