[
    {
        "ID": "212a",
        "AssureCkpointID":"33",
        "SC": "2.1.2.a - Keyboard trap",
        "Details": "212a Keyboard trap"
    },
    {
        "Scenario": "Keyboard trap at an element",
        "DescriptionID": "Keyboard trap",
        "RecShort": "Fix keyboard trap",
        "NativeRecShort": "Element has a keyboard trap",
        "Recommendation": "It is critical to ensure that web content does not \"trap\" the keyboard focus for users who rely on keyboard functionality. Keyboard traps can occur when there are items like custom widgets, embedded applications, and other content formats all on one page. If there is a keyboard trap on a web page, sometimes the only way to escape it involves either using a mouse (which just is not an option for some keyboard users) or refreshing the web page. Keyboard traps can make interacting with web content extremely difficult for keyboard users.",
        "IOSRec": "It is critical to ensure that content does not \"trap\" the swipe focus . Swipe traps can occur when there are items like custom widgets, embedded applications, and other content formats all on one page. If there is a swipe trap on a web page, sometimes the only way to escape it involves either using a click (which is just is not an option for some users). Swipe traps can make interacting with  content extremely difficult for users.",
        "AndroidRec": "NA"
    },
    {
        "Scenario": "Keyboard access is trapped in Flash object",
        "DescriptionID": "Keyboard access is trapped in Flash object",
        "RecShort": "Fix keyboard trap",
        "NativeRecShort": "NA",
        "Recommendation": "It is critical to ensure that web content does not \"trap\" the keyboard focus for users who rely on keyboard functionality. Keyboard traps can occur when there are items like custom widgets, embedded applications, and other content formats all on one page. If there is a keyboard trap on a web page, sometimes the only way to escape it involves either using a mouse (which just is not an option for some keyboard users) or refreshing the web page. Keyboard traps can make interacting with web content extremely difficult for keyboard users.",
        "IOSRec": "NA",
        "AndroidRec": "NA"
    }
]