[
    {
        "ID": "312a",
        "AssureCkpointID":"48",
        "SC": "3.1.2.a - Change in language of parts",
        "Details": "312a Change in language of parts"
    },
    {
        "Scenario": "Change in language is not marked",
        "DescriptionID": "Change in language is not marked",
        "RecShort": "Use lang attribute to mark language change",
        "NativeRecShort": "NA",
        "Recommendation": "When content within a page is of a different language than the primary language of the page, identify these changes so the screen reader can temporarily change language library and accent. \\n\\nFix this issue by applying the lang attribute and correct lang value to a container containing the content that has a different language than the primary language of the page. The lang attribute can be applied to block level elements (<div>, <h1>, <p>, <table>, etc.) as well as inline elements (<span>, <a>, <strong>, etc.).",
        "IOSRec": "NA",
        "AndroidRec": "NA"
    },
    {
        "Scenario": "Value of the LANG attribute is not valid",
        "DescriptionID": "Value of the LANG attribute is not valid",
        "RecShort": "Use valid lang value",
        "NativeRecShort": "NA",
        "Recommendation": "When content within a page is of a different language than the primary language of the page, a valid lang value must be used to identify these changes so the screen reader can temporarily change language library and accent. \\n\\nFix this issue by providing a valid lang value for the lang attribute.",
        "IOSRec": "NA",
        "AndroidRec": "NA"
    }
]