[
    {
        "ID": "331b",
        "AssureCkpointID":"53",
        "SC": "3.3.1.b - Error identification",
        "Details": "331b Error identification"
    },
    {
        "Scenario": "Input error is not described in text",
        "DescriptionID": "Input error is not described in text",
        "RecShort": "Provide text error messages",
        "NativeRecShort": "NA",
        "Recommendation": "In order to provide feedback that can be accessed by all users, error messages must be provided in text format. Error messages must indicate which input is in error (either in text or programmatically) and the nature of the error.\\n\\nFix this issue by doing ALL of the following:\\n1. Provide an error message in text format\\n2. Include the field name the field in the error message and / or programmatically associate the error message and the field in error - typically using aria-describedby\\n3. Clearly describe the reason for the error, being as specific as possible",
        "IOSRec": "NA",
        "AndroidRec": "NA"
    },
    {
        "Scenario": "Error message is not screen reader accessible",
        "DescriptionID": "Error message is not screen reader accessible",
        "RecShort": "Ensure error message is screen reader accessible",
        "NativeRecShort": "NA",
        "Recommendation": "When an error message is presented visually but is programmatically hidden or otherwise inaccessible, screen reader users will not be able to read it.\\n\\nFix this issue by ensuring that the error message is not programmatically hidden or otherwise inaccesible.",
        "IOSRec": "NA",
        "AndroidRec": "NA"
    },
    {
        "Scenario": "Form field with error not identified",
        "DescriptionID": "Form field with error not identified",
        "RecShort": "Identify the form field that has error",
        "NativeRecShort": "NA",
        "Recommendation": "In order to provide feedback that can be accessed by all users, error messages must be provided in text format. Error messages must indicate which input is in error (either in text or programmatically) and the nature of the error.\\n\\nFix this issue by doing at least one of the following:\\n1. Include the field name the field in the error message \\n2. Programmatically associate the error message and the field in error - typically using aria-describedby",
        "IOSRec": "NA",
        "AndroidRec": "NA"
    },
    {
        "Scenario": "Error icon does not describe field or error",
        "DescriptionID": "Error icon does not describe field or error",
        "RecShort": "Provide error messages in text",
        "NativeRecShort": "NA",
        "Recommendation": "In order to provide feedback that can be accessed by all users, error messages must be provided in text format. Error messages must indicate which input is in error (either in text or programmatically) and the nature of the error.\\n\\nFix this issue by doing ALL of the following:\\n1. Provide an error message in text format\\n2. Include the field name the field in the error message and / or programmatically associate the error message and the field in error - typically using aria-describedby\\n3. Clearly describe the reason for the error, being as specific as possible",
        "IOSRec": "NA",
        "AndroidRec": "NA"
    }
]