[
    {
        "ID": "211a",
        "Scenario": "Keyboard operability missing for the elements",
        "CheckpointName": "2.1.1.a Keyboard Navigation",
        "AssureCkpointID": "2.1.1.a Keyboard Navigation",
        "AssureDetailsID": "Action is not accessible by keyboard alone",
        "IssueDescription": "Various levels of treeview elements are not operable through keyboard.",
        "Recommendation": "RULE:\\nFunctionality MUST be available using the keyboard, unless the functionality cannot be accomplished in any known way using a keyboard.\\n\\nHOW TO FIX:\\nFix this issue by ensuring the component can be used by the keyboard.\\n\\nREFERENCE:\\nDeque University:https://dequeuniversity.com/class/input-methods2/keyboard-input/functionality\\n\\nBACKGROUND:\\nSome people cannot use a mouse due to vision or motor disabilities. Content that can be operated with a mouse must also be made operable with keyboard. When content is operable through a keyboard, it becomes operable by a variety assistive technologies such as speech input software, sip-and-puff software, on-screen keyboards, scanning software, and alternate keyboards."
    },
    {
        "ID": "243a",
        "Scenario": "Incorrect focus order",
        "CheckpointName": "2.4.3.a Focus Order",
        "AssureCkpointID": "2.4.3.a Focus Order",
        "AssureDetailsID": "Tab order is not logical",
        "IssueDescription": "Tab order is not appropriate, it does not move from treeview level element to another level in sequential order.",
        "Recommendation": "RULE:\\nThe reading and navigation order MUST be logical and intuitive.\\n\\nHOW TO FIX:\\nFix this issue by ensuring the DOM order is logical so that the focus order will naturally follow. Do not use positive tabindex values to \"correct\" the tab order as it will not change the reading order for screen reader users and will almost always cause unintended, significant problems.\\n\\nREFERENCE:\\nDeque University: https://dequeuniversity.com/class/input-methods2/keyboard-input/tab-order\\n\\nBACKGROUND:\\nWhen keyboard focusable components do not receive focus in a logical order, people with mobility impairments, reading disabilities, and low vision are all impacted. The keyboard focus order must be logical and consistent with the layout of the content. (Note: This does not mean that the focus order has to be identical to the visual order, as long as the user can still understand and operate the content.) A logical focus order makes interaction with content predictable for people who rely on a keyboard to interact with a web content."
    },
    {
        "ID": "412a",
        "Scenario": "Expanded/collapsed state incompletely exposed via ARIA",
        "CheckpointName": "4.1.2.a Name, Role, Value",
        "AssureCkpointID": "4.1.2.a Name, Role, Value",
        "AssureDetailsID": "Expanded/collapsed state incompletely exposed via ARIA",
        "IssueDescription": "Expand/collapse state is not exposed to the screen reader.",
        "Recommendation": "RULE:\\nThe name, role, value, states, and properties of user interface components MUST be programmatically determinable by assistive technologies.\\n\\nHOW TO FIX:\\nFix this issue by using the aria-expanded attribute on the actionable toggle element (e.g. the <button> element) with a value of \"true\" (when the section is expanded) or \"false\" (when the section is collapsed).\\n\\n<button aria-expanded=\"true\">When will I receive my refund?</button>\\n<div class=\"faq-expanded\">You should receive your refund within 5 business days....</div>\\n\\nREFERENCE:\\nW3C ARIA Recommendation: https://www.w3.org/TR/wai-aria-1.1/#aria-expanded\\n\\nBACKGROUND:\\nWhen collapsible content is used, a screen reader user must be able to determine whether the collapsable content below the toggle element is in the expanded state or in the collapsed state."
    },
    {
        "ID": "412b",
        "Scenario": "Element missing treeview markup",
        "CheckpointName": "4.1.2.b custom controls",
        "AssureCkpointID": "4.1.2.b Custom Controls",
        "AssureDetailsID": "NA",
        "IssueDescription": "Elements appear and function as Tree View but not marked up as such. Appropriate role and name is not provided to the items.",
        "Recommendation": "RULE:\\nThe name, role, value, states, and properties of user interface components MUST be programmatically determinable by assistive technologies.\\n\\n\\nHOW TO FIX :\\nFix this issue by using the following roles and attributes:\\n1.All tree nodes are contained in or owned by an element with role tree.\\n2.Each element serving as a tree node has role treeitem.\\n3.Each root node is contained in the element with role tree or referenced by an aria-owns property set on the tree element.4.Each parent node contains or owns an element with role group.\\n5.Each child node is contained in or owned by an element with role group that is contained in or owned by the node that serves as the parent of that child.\\n6.Each element with role treeitem that serves as a parent node has aria-expanded set to false when the node is in a closed state and set to true when the node is in an open state. End nodes do not have the aria-expanded attribute because, if they were to have it, they would be incorrectly described to assistive technologies as parent nodes.\\n7.If the tree supports selection of more than one node, the element with role tree has aria-multiselectable set to true. Otherwise, aria-multiselectable is either set to false or the default value of false is implied.\\n8.If the tree does not support multiple selection, aria-selected is set to true for the selected node and it is not present on any other node in the tree.\\n9.If the tree supports multiple selection:\\na.All selected nodes have aria-selected set to true.\\nb.All nodes that are not selected have aria-selected set to false.\\n10.The element with role tree has either a visible label referenced by aria-labelledby or a value specified for aria-label.\\n11.If the complete set of available nodes is not present in the DOM due to dynamic loading as the user moves focus in or scrolls the tree, each node has aria-level, aria-setsize, and aria-posinset specified.\\n12.If the tree element is horizontally oriented, it has aria-orientation set to horizontal. The default value of aria-orientation for a tree is vertical.\\n\\nNote: Keyboard accessibility MUST still be provided. As a best practice we strongly recommend following the ARIA Authoring Practices keyboard interaction pattern.\\nView the full ARIA design pattern including expected keyboard interaction and examples: https://www.w3.org/TR/wai-aria-practices-1.1/#TreeView\\n\\nREFERENCE:\\nWAI-ARIA Authoring Practices: https://www.w3.org/TR/wai-aria-practices-1.1/#TreeView\\nDeque University: https://dequeuniversity.com/class/custom-widgets2/examples/tree\\n\\nBACKGROUND:\\nEvery user interface control must have a role along with any applicable states and properties so that screen reader users know how to interact with the control. Native HTML elements - such as <button>, <a>, <input>, <select> - already have a role, and their necessary states and properties - such as the checked/unchecked state of a checkbox - are automatically conveyed so nothing more needs to be done. If you create a custom version of a native HTML element or a custom control or widget that does not have a native HTML equivalent, you must add the relevant role(s) and any applicable states and properties using ARIA as well as expected keyboard interactions."
    }
]